(kicad_sch
	(version 20231120)
	(generator "eeschema")
	(generator_version "8.0")
	(uuid "e63e39d7-6ac0-4ffd-8aa3-1841a4541b55")
	(paper "A4")
	(lib_symbols
		(symbol "Device:C"
			(pin_numbers hide)
			(pin_names
				(offset 0.254)
			)
			(exclude_from_sim no)
			(in_bom yes)
			(on_board yes)
			(property "Reference" "C"
				(at 0.635 2.54 0)
				(effects
					(font
						(size 1.27 1.27)
					)
					(justify left)
				)
			)
			(property "Value" "C"
				(at 0.635 -2.54 0)
				(effects
					(font
						(size 1.27 1.27)
					)
					(justify left)
				)
			)
			(property "Footprint" ""
				(at 0.9652 -3.81 0)
				(effects
					(font
						(size 1.27 1.27)
					)
					(hide yes)
				)
			)
			(property "Datasheet" "~"
				(at 0 0 0)
				(effects
					(font
						(size 1.27 1.27)
					)
					(hide yes)
				)
			)
			(property "Description" "Unpolarized capacitor"
				(at 0 0 0)
				(effects
					(font
						(size 1.27 1.27)
					)
					(hide yes)
				)
			)
			(property "ki_keywords" "cap capacitor"
				(at 0 0 0)
				(effects
					(font
						(size 1.27 1.27)
					)
					(hide yes)
				)
			)
			(property "ki_fp_filters" "C_*"
				(at 0 0 0)
				(effects
					(font
						(size 1.27 1.27)
					)
					(hide yes)
				)
			)
			(symbol "C_0_1"
				(polyline
					(pts
						(xy -2.032 -0.762) (xy 2.032 -0.762)
					)
					(stroke
						(width 0.508)
						(type default)
					)
					(fill
						(type none)
					)
				)
				(polyline
					(pts
						(xy -2.032 0.762) (xy 2.032 0.762)
					)
					(stroke
						(width 0.508)
						(type default)
					)
					(fill
						(type none)
					)
				)
			)
			(symbol "C_1_1"
				(pin passive line
					(at 0 3.81 270)
					(length 2.794)
					(name "~"
						(effects
							(font
								(size 1.27 1.27)
							)
						)
					)
					(number "1"
						(effects
							(font
								(size 1.27 1.27)
							)
						)
					)
				)
				(pin passive line
					(at 0 -3.81 90)
					(length 2.794)
					(name "~"
						(effects
							(font
								(size 1.27 1.27)
							)
						)
					)
					(number "2"
						(effects
							(font
								(size 1.27 1.27)
							)
						)
					)
				)
			)
		)
		(symbol "Device:R"
			(pin_numbers hide)
			(pin_names
				(offset 0)
			)
			(exclude_from_sim no)
			(in_bom yes)
			(on_board yes)
			(property "Reference" "R"
				(at 2.032 0 90)
				(effects
					(font
						(size 1.27 1.27)
					)
				)
			)
			(property "Value" "R"
				(at 0 0 90)
				(effects
					(font
						(size 1.27 1.27)
					)
				)
			)
			(property "Footprint" ""
				(at -1.778 0 90)
				(effects
					(font
						(size 1.27 1.27)
					)
					(hide yes)
				)
			)
			(property "Datasheet" "~"
				(at 0 0 0)
				(effects
					(font
						(size 1.27 1.27)
					)
					(hide yes)
				)
			)
			(property "Description" "Resistor"
				(at 0 0 0)
				(effects
					(font
						(size 1.27 1.27)
					)
					(hide yes)
				)
			)
			(property "ki_keywords" "R res resistor"
				(at 0 0 0)
				(effects
					(font
						(size 1.27 1.27)
					)
					(hide yes)
				)
			)
			(property "ki_fp_filters" "R_*"
				(at 0 0 0)
				(effects
					(font
						(size 1.27 1.27)
					)
					(hide yes)
				)
			)
			(symbol "R_0_1"
				(rectangle
					(start -1.016 -2.54)
					(end 1.016 2.54)
					(stroke
						(width 0.254)
						(type default)
					)
					(fill
						(type none)
					)
				)
			)
			(symbol "R_1_1"
				(pin passive line
					(at 0 3.81 270)
					(length 1.27)
					(name "~"
						(effects
							(font
								(size 1.27 1.27)
							)
						)
					)
					(number "1"
						(effects
							(font
								(size 1.27 1.27)
							)
						)
					)
				)
				(pin passive line
					(at 0 -3.81 90)
					(length 1.27)
					(name "~"
						(effects
							(font
								(size 1.27 1.27)
							)
						)
					)
					(number "2"
						(effects
							(font
								(size 1.27 1.27)
							)
						)
					)
				)
			)
		)
		(symbol "Transistor_FET:AO3401A"
			(pin_names hide)
			(exclude_from_sim no)
			(in_bom yes)
			(on_board yes)
			(property "Reference" "Q"
				(at 5.08 1.905 0)
				(effects
					(font
						(size 1.27 1.27)
					)
					(justify left)
				)
			)
			(property "Value" "AO3401A"
				(at 5.08 0 0)
				(effects
					(font
						(size 1.27 1.27)
					)
					(justify left)
				)
			)
			(property "Footprint" "Package_TO_SOT_SMD:SOT-23"
				(at 5.08 -1.905 0)
				(effects
					(font
						(size 1.27 1.27)
						(italic yes)
					)
					(justify left)
					(hide yes)
				)
			)
			(property "Datasheet" "http://www.aosmd.com/pdfs/datasheet/AO3401A.pdf"
				(at 5.08 -3.81 0)
				(effects
					(font
						(size 1.27 1.27)
					)
					(justify left)
					(hide yes)
				)
			)
			(property "Description" "-4.0A Id, -30V Vds, P-Channel MOSFET, SOT-23"
				(at 0 0 0)
				(effects
					(font
						(size 1.27 1.27)
					)
					(hide yes)
				)
			)
			(property "ki_keywords" "P-Channel MOSFET"
				(at 0 0 0)
				(effects
					(font
						(size 1.27 1.27)
					)
					(hide yes)
				)
			)
			(property "ki_fp_filters" "SOT?23*"
				(at 0 0 0)
				(effects
					(font
						(size 1.27 1.27)
					)
					(hide yes)
				)
			)
			(symbol "AO3401A_0_1"
				(polyline
					(pts
						(xy 0.254 0) (xy -2.54 0)
					)
					(stroke
						(width 0)
						(type default)
					)
					(fill
						(type none)
					)
				)
				(polyline
					(pts
						(xy 0.254 1.905) (xy 0.254 -1.905)
					)
					(stroke
						(width 0.254)
						(type default)
					)
					(fill
						(type none)
					)
				)
				(polyline
					(pts
						(xy 0.762 -1.27) (xy 0.762 -2.286)
					)
					(stroke
						(width 0.254)
						(type default)
					)
					(fill
						(type none)
					)
				)
				(polyline
					(pts
						(xy 0.762 0.508) (xy 0.762 -0.508)
					)
					(stroke
						(width 0.254)
						(type default)
					)
					(fill
						(type none)
					)
				)
				(polyline
					(pts
						(xy 0.762 2.286) (xy 0.762 1.27)
					)
					(stroke
						(width 0.254)
						(type default)
					)
					(fill
						(type none)
					)
				)
				(polyline
					(pts
						(xy 2.54 2.54) (xy 2.54 1.778)
					)
					(stroke
						(width 0)
						(type default)
					)
					(fill
						(type none)
					)
				)
				(polyline
					(pts
						(xy 2.54 -2.54) (xy 2.54 0) (xy 0.762 0)
					)
					(stroke
						(width 0)
						(type default)
					)
					(fill
						(type none)
					)
				)
				(polyline
					(pts
						(xy 0.762 1.778) (xy 3.302 1.778) (xy 3.302 -1.778) (xy 0.762 -1.778)
					)
					(stroke
						(width 0)
						(type default)
					)
					(fill
						(type none)
					)
				)
				(polyline
					(pts
						(xy 2.286 0) (xy 1.27 0.381) (xy 1.27 -0.381) (xy 2.286 0)
					)
					(stroke
						(width 0)
						(type default)
					)
					(fill
						(type outline)
					)
				)
				(polyline
					(pts
						(xy 2.794 -0.508) (xy 2.921 -0.381) (xy 3.683 -0.381) (xy 3.81 -0.254)
					)
					(stroke
						(width 0)
						(type default)
					)
					(fill
						(type none)
					)
				)
				(polyline
					(pts
						(xy 3.302 -0.381) (xy 2.921 0.254) (xy 3.683 0.254) (xy 3.302 -0.381)
					)
					(stroke
						(width 0)
						(type default)
					)
					(fill
						(type none)
					)
				)
				(circle
					(center 1.651 0)
					(radius 2.794)
					(stroke
						(width 0.254)
						(type default)
					)
					(fill
						(type none)
					)
				)
				(circle
					(center 2.54 -1.778)
					(radius 0.254)
					(stroke
						(width 0)
						(type default)
					)
					(fill
						(type outline)
					)
				)
				(circle
					(center 2.54 1.778)
					(radius 0.254)
					(stroke
						(width 0)
						(type default)
					)
					(fill
						(type outline)
					)
				)
			)
			(symbol "AO3401A_1_1"
				(pin input line
					(at -5.08 0 0)
					(length 2.54)
					(name "G"
						(effects
							(font
								(size 1.27 1.27)
							)
						)
					)
					(number "1"
						(effects
							(font
								(size 1.27 1.27)
							)
						)
					)
				)
				(pin passive line
					(at 2.54 -5.08 90)
					(length 2.54)
					(name "S"
						(effects
							(font
								(size 1.27 1.27)
							)
						)
					)
					(number "2"
						(effects
							(font
								(size 1.27 1.27)
							)
						)
					)
				)
				(pin passive line
					(at 2.54 5.08 270)
					(length 2.54)
					(name "D"
						(effects
							(font
								(size 1.27 1.27)
							)
						)
					)
					(number "3"
						(effects
							(font
								(size 1.27 1.27)
							)
						)
					)
				)
			)
		)
		(symbol "lib_cmp:battery_smd"
			(pin_names
				(offset 0) hide)
			(exclude_from_sim no)
			(in_bom yes)
			(on_board yes)
			(property "Reference" "BT"
				(at 2.54 2.54 0)
				(effects
					(font
						(size 1.27 1.27)
					)
					(justify left)
				)
			)
			(property "Value" "battery_smd"
				(at 2.54 0 0)
				(effects
					(font
						(size 1.27 1.27)
					)
					(justify left)
				)
			)
			(property "Footprint" "lib_cmp:battery_smd"
				(at 0 1.524 90)
				(effects
					(font
						(size 1.27 1.27)
					)
					(hide yes)
				)
			)
			(property "Datasheet" ""
				(at 0 1.524 90)
				(effects
					(font
						(size 1.27 1.27)
					)
					(hide yes)
				)
			)
			(property "Description" ""
				(at 0 0 0)
				(effects
					(font
						(size 1.27 1.27)
					)
					(hide yes)
				)
			)
			(property "ki_keywords" "batt voltage-source cell"
				(at 0 0 0)
				(effects
					(font
						(size 1.27 1.27)
					)
					(hide yes)
				)
			)
			(symbol "battery_smd_0_1"
				(rectangle
					(start -2.032 -1.397)
					(end 2.032 -1.651)
					(stroke
						(width 0)
						(type default)
					)
					(fill
						(type outline)
					)
				)
				(rectangle
					(start -2.032 1.778)
					(end 2.032 1.524)
					(stroke
						(width 0)
						(type default)
					)
					(fill
						(type outline)
					)
				)
				(rectangle
					(start -1.3208 -1.9812)
					(end 1.27 -2.4892)
					(stroke
						(width 0)
						(type default)
					)
					(fill
						(type outline)
					)
				)
				(rectangle
					(start -1.3208 1.1938)
					(end 1.27 0.6858)
					(stroke
						(width 0)
						(type default)
					)
					(fill
						(type outline)
					)
				)
				(polyline
					(pts
						(xy 0 -1.524) (xy 0 -1.27)
					)
					(stroke
						(width 0)
						(type default)
					)
					(fill
						(type none)
					)
				)
				(polyline
					(pts
						(xy 0 -1.016) (xy 0 -0.762)
					)
					(stroke
						(width 0)
						(type default)
					)
					(fill
						(type none)
					)
				)
				(polyline
					(pts
						(xy 0 -0.508) (xy 0 -0.254)
					)
					(stroke
						(width 0)
						(type default)
					)
					(fill
						(type none)
					)
				)
				(polyline
					(pts
						(xy 0 0) (xy 0 0.254)
					)
					(stroke
						(width 0)
						(type default)
					)
					(fill
						(type none)
					)
				)
				(polyline
					(pts
						(xy 0 0.508) (xy 0 0.762)
					)
					(stroke
						(width 0)
						(type default)
					)
					(fill
						(type none)
					)
				)
				(polyline
					(pts
						(xy 0 1.778) (xy 0 2.54)
					)
					(stroke
						(width 0)
						(type default)
					)
					(fill
						(type none)
					)
				)
				(polyline
					(pts
						(xy 0.254 2.667) (xy 1.27 2.667)
					)
					(stroke
						(width 0.254)
						(type default)
					)
					(fill
						(type none)
					)
				)
				(polyline
					(pts
						(xy 0.762 3.175) (xy 0.762 2.159)
					)
					(stroke
						(width 0.254)
						(type default)
					)
					(fill
						(type none)
					)
				)
			)
			(symbol "battery_smd_1_1"
				(pin passive line
					(at 0 5.08 270)
					(length 2.54)
					(name "+"
						(effects
							(font
								(size 1.27 1.27)
							)
						)
					)
					(number "1"
						(effects
							(font
								(size 1.27 1.27)
							)
						)
					)
				)
				(pin passive line
					(at 0 -5.08 90)
					(length 2.54)
					(name "-"
						(effects
							(font
								(size 1.27 1.27)
							)
						)
					)
					(number "2"
						(effects
							(font
								(size 1.27 1.27)
							)
						)
					)
				)
			)
		)
		(symbol "lib_cmp:con_base"
			(exclude_from_sim no)
			(in_bom yes)
			(on_board yes)
			(property "Reference" "U"
				(at 0 -0.254 0)
				(effects
					(font
						(size 1.27 1.27)
					)
				)
			)
			(property "Value" ""
				(at -7.62 3.81 0)
				(effects
					(font
						(size 1.27 1.27)
					)
				)
			)
			(property "Footprint" "Connector_PinHeader_2.54mm:PinHeader_1x11_P2.54mm_Vertical"
				(at -7.62 3.81 0)
				(effects
					(font
						(size 1.27 1.27)
					)
					(hide yes)
				)
			)
			(property "Datasheet" ""
				(at -7.62 3.81 0)
				(effects
					(font
						(size 1.27 1.27)
					)
					(hide yes)
				)
			)
			(property "Description" ""
				(at -7.62 3.81 0)
				(effects
					(font
						(size 1.27 1.27)
					)
					(hide yes)
				)
			)
			(symbol "con_base_0_1"
				(rectangle
					(start -5.08 15.24)
					(end 5.08 -15.24)
					(stroke
						(width 0)
						(type default)
					)
					(fill
						(type none)
					)
				)
			)
			(symbol "con_base_1_1"
				(pin power_out line
					(at -7.62 12.7 0)
					(length 2.54)
					(name "GND"
						(effects
							(font
								(size 1.27 1.27)
							)
						)
					)
					(number "1"
						(effects
							(font
								(size 1.27 1.27)
							)
						)
					)
				)
				(pin bidirectional line
					(at -7.62 -10.16 0)
					(length 2.54)
					(name "d7"
						(effects
							(font
								(size 1.27 1.27)
							)
						)
					)
					(number "10"
						(effects
							(font
								(size 1.27 1.27)
							)
						)
					)
				)
				(pin bidirectional line
					(at -7.62 -12.7 0)
					(length 2.54)
					(name "d8"
						(effects
							(font
								(size 1.27 1.27)
							)
						)
					)
					(number "11"
						(effects
							(font
								(size 1.27 1.27)
							)
						)
					)
				)
				(pin power_out line
					(at -7.62 10.16 0)
					(length 2.54)
					(name "Vext"
						(effects
							(font
								(size 1.27 1.27)
							)
						)
					)
					(number "2"
						(effects
							(font
								(size 1.27 1.27)
							)
						)
					)
				)
				(pin bidirectional line
					(at -7.62 7.62 0)
					(length 2.54)
					(name "d0"
						(effects
							(font
								(size 1.27 1.27)
							)
						)
					)
					(number "3"
						(effects
							(font
								(size 1.27 1.27)
							)
						)
					)
				)
				(pin bidirectional line
					(at -7.62 5.08 0)
					(length 2.54)
					(name "d1"
						(effects
							(font
								(size 1.27 1.27)
							)
						)
					)
					(number "4"
						(effects
							(font
								(size 1.27 1.27)
							)
						)
					)
				)
				(pin bidirectional line
					(at -7.62 2.54 0)
					(length 2.54)
					(name "d2"
						(effects
							(font
								(size 1.27 1.27)
							)
						)
					)
					(number "5"
						(effects
							(font
								(size 1.27 1.27)
							)
						)
					)
				)
				(pin bidirectional line
					(at -7.62 0 0)
					(length 2.54)
					(name "d3"
						(effects
							(font
								(size 1.27 1.27)
							)
						)
					)
					(number "6"
						(effects
							(font
								(size 1.27 1.27)
							)
						)
					)
				)
				(pin bidirectional line
					(at -7.62 -2.54 0)
					(length 2.54)
					(name "d4"
						(effects
							(font
								(size 1.27 1.27)
							)
						)
					)
					(number "7"
						(effects
							(font
								(size 1.27 1.27)
							)
						)
					)
				)
				(pin bidirectional line
					(at -7.62 -5.08 0)
					(length 2.54)
					(name "d5"
						(effects
							(font
								(size 1.27 1.27)
							)
						)
					)
					(number "8"
						(effects
							(font
								(size 1.27 1.27)
							)
						)
					)
				)
				(pin bidirectional line
					(at -7.62 -7.62 0)
					(length 2.54)
					(name "d6"
						(effects
							(font
								(size 1.27 1.27)
							)
						)
					)
					(number "9"
						(effects
							(font
								(size 1.27 1.27)
							)
						)
					)
				)
			)
		)
		(symbol "lib_cmp:ipex1"
			(pin_names
				(offset 1.016)
			)
			(exclude_from_sim no)
			(in_bom yes)
			(on_board yes)
			(property "Reference" "J"
				(at -3.81 4.064 0)
				(effects
					(font
						(size 1.27 1.27)
					)
					(justify left bottom)
				)
			)
			(property "Value" "ipex1"
				(at -4.064 -4.318 0)
				(effects
					(font
						(size 1.27 1.27)
					)
					(justify left bottom)
				)
			)
			(property "Footprint" "lib_cmp:ipex1_smd"
				(at 0.254 -7.112 0)
				(effects
					(font
						(size 1.27 1.27)
					)
					(justify bottom)
					(hide yes)
				)
			)
			(property "Datasheet" ""
				(at 0 0 0)
				(effects
					(font
						(size 1.27 1.27)
					)
					(hide yes)
				)
			)
			(property "Description" ""
				(at 0 0 0)
				(effects
					(font
						(size 1.27 1.27)
					)
					(hide yes)
				)
			)
			(property "MF" ""
				(at 0 0 0)
				(effects
					(font
						(size 1.27 1.27)
					)
					(justify bottom)
					(hide yes)
				)
			)
			(property "Description_1" ""
				(at 0 0 0)
				(effects
					(font
						(size 1.27 1.27)
					)
					(justify bottom)
					(hide yes)
				)
			)
			(property "Package" ""
				(at 0 0 0)
				(effects
					(font
						(size 1.27 1.27)
					)
					(justify bottom)
					(hide yes)
				)
			)
			(property "Price" ""
				(at 0 0 0)
				(effects
					(font
						(size 1.27 1.27)
					)
					(justify bottom)
					(hide yes)
				)
			)
			(property "Check_prices" ""
				(at 0 0 0)
				(effects
					(font
						(size 1.27 1.27)
					)
					(justify bottom)
					(hide yes)
				)
			)
			(property "STANDARD" ""
				(at 0 0 0)
				(effects
					(font
						(size 1.27 1.27)
					)
					(justify bottom)
					(hide yes)
				)
			)
			(property "PARTREV" ""
				(at 0 0 0)
				(effects
					(font
						(size 1.27 1.27)
					)
					(justify bottom)
					(hide yes)
				)
			)
			(property "SnapEDA_Link" ""
				(at 0 0 0)
				(effects
					(font
						(size 1.27 1.27)
					)
					(justify bottom)
					(hide yes)
				)
			)
			(property "MP" ""
				(at 0 0 0)
				(effects
					(font
						(size 1.27 1.27)
					)
					(justify bottom)
					(hide yes)
				)
			)
			(property "Availability" ""
				(at 0 0 0)
				(effects
					(font
						(size 1.27 1.27)
					)
					(justify bottom)
					(hide yes)
				)
			)
			(property "MANUFACTURER" ""
				(at 0 0 0)
				(effects
					(font
						(size 1.27 1.27)
					)
					(justify bottom)
					(hide yes)
				)
			)
			(symbol "ipex1_0_0"
				(arc
					(start -3.175 -0.635)
					(mid -2.5427 0)
					(end -3.175 0.635)
					(stroke
						(width 0.254)
						(type default)
					)
					(fill
						(type none)
					)
				)
				(arc
					(start -3.175 1.905)
					(mid -2.5427 2.54)
					(end -3.175 3.175)
					(stroke
						(width 0.254)
						(type default)
					)
					(fill
						(type none)
					)
				)
				(polyline
					(pts
						(xy -1.016 1.524) (xy 0 1.524)
					)
					(stroke
						(width 0.254)
						(type default)
					)
					(fill
						(type none)
					)
				)
				(polyline
					(pts
						(xy -0.762 -0.762) (xy -1.27 -1.524)
					)
					(stroke
						(width 0.254)
						(type default)
					)
					(fill
						(type none)
					)
				)
				(polyline
					(pts
						(xy 0 -0.762) (xy -0.762 -0.762)
					)
					(stroke
						(width 0.254)
						(type default)
					)
					(fill
						(type none)
					)
				)
				(polyline
					(pts
						(xy 0 -0.762) (xy -0.508 -1.524)
					)
					(stroke
						(width 0.254)
						(type default)
					)
					(fill
						(type none)
					)
				)
				(polyline
					(pts
						(xy 0 -0.762) (xy 0.762 -0.762)
					)
					(stroke
						(width 0.254)
						(type default)
					)
					(fill
						(type none)
					)
				)
				(polyline
					(pts
						(xy 0 1.524) (xy 0 -0.762)
					)
					(stroke
						(width 0.254)
						(type default)
					)
					(fill
						(type none)
					)
				)
				(polyline
					(pts
						(xy 0 1.524) (xy 1.016 1.524)
					)
					(stroke
						(width 0.254)
						(type default)
					)
					(fill
						(type none)
					)
				)
				(polyline
					(pts
						(xy 0.762 -0.762) (xy 0.254 -1.524)
					)
					(stroke
						(width 0.254)
						(type default)
					)
					(fill
						(type none)
					)
				)
				(circle
					(center 0 0)
					(radius 0.254)
					(stroke
						(width 0.254)
						(type default)
					)
					(fill
						(type none)
					)
				)
				(circle
					(center 0 2.54)
					(radius 1.016)
					(stroke
						(width 0.254)
						(type default)
					)
					(fill
						(type none)
					)
				)
				(pin passive line
					(at 2.54 2.54 180)
					(length 5.08)
					(name "~"
						(effects
							(font
								(size 1.016 1.016)
							)
						)
					)
					(number "1"
						(effects
							(font
								(size 1.016 1.016)
							)
						)
					)
				)
				(pin passive line
					(at 2.54 0 180)
					(length 5.08)
					(name "~"
						(effects
							(font
								(size 1.016 1.016)
							)
						)
					)
					(number "2"
						(effects
							(font
								(size 1.016 1.016)
							)
						)
					)
				)
				(pin passive line
					(at 2.54 0 180)
					(length 5.08)
					(name "~"
						(effects
							(font
								(size 1.016 1.016)
							)
						)
					)
					(number "3"
						(effects
							(font
								(size 1.016 1.016)
							)
						)
					)
				)
			)
		)
		(symbol "lib_cmp:passive_2x"
			(exclude_from_sim no)
			(in_bom yes)
			(on_board yes)
			(property "Reference" "U"
				(at 2.54 5.08 0)
				(effects
					(font
						(size 1.27 1.27)
					)
				)
			)
			(property "Value" "passive_2x"
				(at -3.81 5.08 0)
				(effects
					(font
						(size 1.27 1.27)
					)
				)
			)
			(property "Footprint" "Connector_PinHeader_2.54mm:PinHeader_1x02_P2.54mm_Vertical"
				(at -1.27 6.35 0)
				(effects
					(font
						(size 1.27 1.27)
					)
					(hide yes)
				)
			)
			(property "Datasheet" ""
				(at -1.27 6.35 0)
				(effects
					(font
						(size 1.27 1.27)
					)
					(hide yes)
				)
			)
			(property "Description" ""
				(at 0 0 0)
				(effects
					(font
						(size 1.27 1.27)
					)
					(hide yes)
				)
			)
			(symbol "passive_2x_0_1"
				(rectangle
					(start -3.81 3.81)
					(end 2.54 -1.27)
					(stroke
						(width 0.1524)
						(type default)
					)
					(fill
						(type none)
					)
				)
			)
			(symbol "passive_2x_1_1"
				(pin power_in line
					(at -6.35 2.54 0)
					(length 2.54)
					(name "Vcc"
						(effects
							(font
								(size 1.27 1.27)
							)
						)
					)
					(number "1"
						(effects
							(font
								(size 1.27 1.27)
							)
						)
					)
				)
				(pin power_in line
					(at -6.35 0 0)
					(length 2.54)
					(name "GND"
						(effects
							(font
								(size 1.27 1.27)
							)
						)
					)
					(number "2"
						(effects
							(font
								(size 1.27 1.27)
							)
						)
					)
				)
			)
		)
		(symbol "lib_mcu:esp32_lolin_s2"
			(exclude_from_sim no)
			(in_bom yes)
			(on_board yes)
			(property "Reference" "U"
				(at 6.35 22.86 0)
				(effects
					(font
						(size 1.27 1.27)
					)
				)
			)
			(property "Value" "esp32_lolin_s2"
				(at -6.35 22.86 0)
				(effects
					(font
						(size 1.27 1.27)
					)
				)
			)
			(property "Footprint" "lib_mcu:esp32_lolin_s2"
				(at 0 12.7 0)
				(effects
					(font
						(size 1.27 1.27)
					)
					(hide yes)
				)
			)
			(property "Datasheet" ""
				(at 3.81 13.97 0)
				(effects
					(font
						(size 1.27 1.27)
					)
					(hide yes)
				)
			)
			(property "Description" ""
				(at 0 0 0)
				(effects
					(font
						(size 1.27 1.27)
					)
					(hide yes)
				)
			)
			(symbol "esp32_lolin_s2_0_1"
				(rectangle
					(start -12.7 21.59)
					(end 12.7 -21.59)
					(stroke
						(width 0.1524)
						(type default)
					)
					(fill
						(type background)
					)
				)
				(rectangle
					(start 1.27 22.86)
					(end 1.27 22.86)
					(stroke
						(width 0.1524)
						(type default)
					)
					(fill
						(type none)
					)
				)
				(rectangle
					(start 1.27 22.86)
					(end 1.27 22.86)
					(stroke
						(width 0.1524)
						(type default)
					)
					(fill
						(type none)
					)
				)
			)
			(symbol "esp32_lolin_s2_1_1"
				(pin input line
					(at -15.24 19.05 0)
					(length 2.54)
					(name "en"
						(effects
							(font
								(size 1.27 1.27)
							)
						)
					)
					(number "1"
						(effects
							(font
								(size 1.27 1.27)
							)
						)
					)
				)
				(pin bidirectional line
					(at -15.24 -3.81 0)
					(length 2.54)
					(name "8"
						(effects
							(font
								(size 1.27 1.27)
							)
						)
					)
					(number "10"
						(effects
							(font
								(size 1.27 1.27)
							)
						)
					)
				)
				(pin bidirectional line
					(at -15.24 -6.35 0)
					(length 2.54)
					(name "11"
						(effects
							(font
								(size 1.27 1.27)
							)
						)
					)
					(number "11"
						(effects
							(font
								(size 1.27 1.27)
							)
						)
					)
				)
				(pin bidirectional line
					(at -15.24 -8.89 0)
					(length 2.54)
					(name "10"
						(effects
							(font
								(size 1.27 1.27)
							)
						)
					)
					(number "12"
						(effects
							(font
								(size 1.27 1.27)
							)
						)
					)
				)
				(pin bidirectional line
					(at -15.24 -11.43 0)
					(length 2.54)
					(name "12"
						(effects
							(font
								(size 1.27 1.27)
							)
						)
					)
					(number "13"
						(effects
							(font
								(size 1.27 1.27)
							)
						)
					)
				)
				(pin bidirectional line
					(at -15.24 -13.97 0)
					(length 2.54)
					(name "13"
						(effects
							(font
								(size 1.27 1.27)
							)
						)
					)
					(number "14"
						(effects
							(font
								(size 1.27 1.27)
							)
						)
					)
				)
				(pin power_in line
					(at -15.24 -16.51 0)
					(length 2.54)
					(name "3.3v"
						(effects
							(font
								(size 1.27 1.27)
							)
						)
					)
					(number "15"
						(effects
							(font
								(size 1.27 1.27)
							)
						)
					)
				)
				(pin bidirectional line
					(at -15.24 -19.05 0)
					(length 2.54)
					(name "14"
						(effects
							(font
								(size 1.27 1.27)
							)
						)
					)
					(number "16"
						(effects
							(font
								(size 1.27 1.27)
							)
						)
					)
				)
				(pin bidirectional line
					(at 15.24 19.05 180)
					(length 2.54)
					(name "40"
						(effects
							(font
								(size 1.27 1.27)
							)
						)
					)
					(number "17"
						(effects
							(font
								(size 1.27 1.27)
							)
						)
					)
				)
				(pin bidirectional line
					(at 15.24 16.51 180)
					(length 2.54)
					(name "39"
						(effects
							(font
								(size 1.27 1.27)
							)
						)
					)
					(number "18"
						(effects
							(font
								(size 1.27 1.27)
							)
						)
					)
				)
				(pin bidirectional line
					(at 15.24 13.97 180)
					(length 2.54)
					(name "38"
						(effects
							(font
								(size 1.27 1.27)
							)
						)
					)
					(number "19"
						(effects
							(font
								(size 1.27 1.27)
							)
						)
					)
				)
				(pin bidirectional line
					(at -15.24 16.51 0)
					(length 2.54)
					(name "1"
						(effects
							(font
								(size 1.27 1.27)
							)
						)
					)
					(number "2"
						(effects
							(font
								(size 1.27 1.27)
							)
						)
					)
				)
				(pin bidirectional line
					(at 15.24 11.43 180)
					(length 2.54)
					(name "37"
						(effects
							(font
								(size 1.27 1.27)
							)
						)
					)
					(number "20"
						(effects
							(font
								(size 1.27 1.27)
							)
						)
					)
				)
				(pin bidirectional line
					(at 15.24 8.89 180)
					(length 2.54)
					(name "36"
						(effects
							(font
								(size 1.27 1.27)
							)
						)
					)
					(number "21"
						(effects
							(font
								(size 1.27 1.27)
							)
						)
					)
				)
				(pin bidirectional line
					(at 15.24 6.35 180)
					(length 2.54)
					(name "35"
						(effects
							(font
								(size 1.27 1.27)
							)
						)
					)
					(number "22"
						(effects
							(font
								(size 1.27 1.27)
							)
						)
					)
				)
				(pin bidirectional line
					(at 15.24 3.81 180)
					(length 2.54)
					(name "34"
						(effects
							(font
								(size 1.27 1.27)
							)
						)
					)
					(number "23"
						(effects
							(font
								(size 1.27 1.27)
							)
						)
					)
				)
				(pin bidirectional line
					(at 15.24 1.27 180)
					(length 2.54)
					(name "33"
						(effects
							(font
								(size 1.27 1.27)
							)
						)
					)
					(number "24"
						(effects
							(font
								(size 1.27 1.27)
							)
						)
					)
				)
				(pin bidirectional line
					(at 15.24 -1.27 180)
					(length 2.54)
					(name "21"
						(effects
							(font
								(size 1.27 1.27)
							)
						)
					)
					(number "25"
						(effects
							(font
								(size 1.27 1.27)
							)
						)
					)
				)
				(pin bidirectional line
					(at 15.24 -3.81 180)
					(length 2.54)
					(name "18"
						(effects
							(font
								(size 1.27 1.27)
							)
						)
					)
					(number "26"
						(effects
							(font
								(size 1.27 1.27)
							)
						)
					)
				)
				(pin bidirectional line
					(at 15.24 -6.35 180)
					(length 2.54)
					(name "17"
						(effects
							(font
								(size 1.27 1.27)
							)
						)
					)
					(number "27"
						(effects
							(font
								(size 1.27 1.27)
							)
						)
					)
				)
				(pin bidirectional line
					(at 15.24 -8.89 180)
					(length 2.54)
					(name "16"
						(effects
							(font
								(size 1.27 1.27)
							)
						)
					)
					(number "28"
						(effects
							(font
								(size 1.27 1.27)
							)
						)
					)
				)
				(pin power_out line
					(at 15.24 -11.43 180)
					(length 2.54)
					(name "gnd"
						(effects
							(font
								(size 1.27 1.27)
							)
						)
					)
					(number "29"
						(effects
							(font
								(size 1.27 1.27)
							)
						)
					)
				)
				(pin bidirectional line
					(at -15.24 13.97 0)
					(length 2.54)
					(name "3"
						(effects
							(font
								(size 1.27 1.27)
							)
						)
					)
					(number "3"
						(effects
							(font
								(size 1.27 1.27)
							)
						)
					)
				)
				(pin power_out line
					(at 15.24 -13.97 180)
					(length 2.54)
					(name "gnd"
						(effects
							(font
								(size 1.27 1.27)
							)
						)
					)
					(number "30"
						(effects
							(font
								(size 1.27 1.27)
							)
						)
					)
				)
				(pin bidirectional line
					(at 15.24 -16.51 180)
					(length 2.54)
					(name "15"
						(effects
							(font
								(size 1.27 1.27)
							)
						)
					)
					(number "31"
						(effects
							(font
								(size 1.27 1.27)
							)
						)
					)
				)
				(pin bidirectional line
					(at 15.24 -19.05 180)
					(length 2.54)
					(name "vbus"
						(effects
							(font
								(size 1.27 1.27)
							)
						)
					)
					(number "32"
						(effects
							(font
								(size 1.27 1.27)
							)
						)
					)
				)
				(pin bidirectional line
					(at -15.24 11.43 0)
					(length 2.54)
					(name "2"
						(effects
							(font
								(size 1.27 1.27)
							)
						)
					)
					(number "4"
						(effects
							(font
								(size 1.27 1.27)
							)
						)
					)
				)
				(pin bidirectional line
					(at -15.24 8.89 0)
					(length 2.54)
					(name "5"
						(effects
							(font
								(size 1.27 1.27)
							)
						)
					)
					(number "5"
						(effects
							(font
								(size 1.27 1.27)
							)
						)
					)
				)
				(pin bidirectional line
					(at -15.24 6.35 0)
					(length 2.54)
					(name "4"
						(effects
							(font
								(size 1.27 1.27)
							)
						)
					)
					(number "6"
						(effects
							(font
								(size 1.27 1.27)
							)
						)
					)
				)
				(pin bidirectional line
					(at -15.24 3.81 0)
					(length 2.54)
					(name "7"
						(effects
							(font
								(size 1.27 1.27)
							)
						)
					)
					(number "7"
						(effects
							(font
								(size 1.27 1.27)
							)
						)
					)
				)
				(pin bidirectional line
					(at -15.24 1.27 0)
					(length 2.54)
					(name "6"
						(effects
							(font
								(size 1.27 1.27)
							)
						)
					)
					(number "8"
						(effects
							(font
								(size 1.27 1.27)
							)
						)
					)
				)
				(pin bidirectional line
					(at -15.24 -1.27 0)
					(length 2.54)
					(name "9"
						(effects
							(font
								(size 1.27 1.27)
							)
						)
					)
					(number "9"
						(effects
							(font
								(size 1.27 1.27)
							)
						)
					)
				)
			)
		)
		(symbol "lib_mcu:sx1276_board"
			(exclude_from_sim no)
			(in_bom yes)
			(on_board yes)
			(property "Reference" "U"
				(at 11.43 13.97 0)
				(effects
					(font
						(size 1.27 1.27)
					)
				)
			)
			(property "Value" "sx1276_board"
				(at 0 13.97 0)
				(effects
					(font
						(size 1.27 1.27)
					)
				)
			)
			(property "Footprint" "lib_mcu:sx1276_board"
				(at 0 -5.08 0)
				(effects
					(font
						(size 1.27 1.27)
					)
					(hide yes)
				)
			)
			(property "Datasheet" ""
				(at 0 -5.08 0)
				(effects
					(font
						(size 1.27 1.27)
					)
					(hide yes)
				)
			)
			(property "Description" ""
				(at 0 0 0)
				(effects
					(font
						(size 1.27 1.27)
					)
					(hide yes)
				)
			)
			(symbol "sx1276_board_0_1"
				(rectangle
					(start -10.16 11.43)
					(end 10.16 -11.43)
					(stroke
						(width 0.1524)
						(type default)
					)
					(fill
						(type none)
					)
				)
			)
			(symbol "sx1276_board_1_1"
				(pin unspecified line
					(at -12.7 8.89 0)
					(length 2.54)
					(name "ANT"
						(effects
							(font
								(size 1.27 1.27)
							)
						)
					)
					(number "1"
						(effects
							(font
								(size 1.27 1.27)
							)
						)
					)
				)
				(pin output line
					(at 12.7 -6.35 180)
					(length 2.54)
					(name "MISO"
						(effects
							(font
								(size 1.27 1.27)
							)
						)
					)
					(number "10"
						(effects
							(font
								(size 1.27 1.27)
							)
						)
					)
				)
				(pin input line
					(at 12.7 -3.81 180)
					(length 2.54)
					(name "MOSI"
						(effects
							(font
								(size 1.27 1.27)
							)
						)
					)
					(number "11"
						(effects
							(font
								(size 1.27 1.27)
							)
						)
					)
				)
				(pin input line
					(at 12.7 -1.27 180)
					(length 2.54)
					(name "SCK"
						(effects
							(font
								(size 1.27 1.27)
							)
						)
					)
					(number "12"
						(effects
							(font
								(size 1.27 1.27)
							)
						)
					)
				)
				(pin input line
					(at 12.7 1.27 180)
					(length 2.54)
					(name "NSS"
						(effects
							(font
								(size 1.27 1.27)
							)
						)
					)
					(number "13"
						(effects
							(font
								(size 1.27 1.27)
							)
						)
					)
				)
				(pin input line
					(at 12.7 3.81 180)
					(length 2.54)
					(name "REST"
						(effects
							(font
								(size 1.27 1.27)
							)
						)
					)
					(number "14"
						(effects
							(font
								(size 1.27 1.27)
							)
						)
					)
				)
				(pin bidirectional line
					(at 12.7 6.35 180)
					(length 2.54)
					(name "DIO5"
						(effects
							(font
								(size 1.27 1.27)
							)
						)
					)
					(number "15"
						(effects
							(font
								(size 1.27 1.27)
							)
						)
					)
				)
				(pin power_in line
					(at 12.7 8.89 180)
					(length 2.54)
					(name "GND"
						(effects
							(font
								(size 1.27 1.27)
							)
						)
					)
					(number "16"
						(effects
							(font
								(size 1.27 1.27)
							)
						)
					)
				)
				(pin power_in line
					(at -12.7 6.35 0)
					(length 2.54)
					(name "GND"
						(effects
							(font
								(size 1.27 1.27)
							)
						)
					)
					(number "2"
						(effects
							(font
								(size 1.27 1.27)
							)
						)
					)
				)
				(pin bidirectional line
					(at -12.7 3.81 0)
					(length 2.54)
					(name "DIO3"
						(effects
							(font
								(size 1.27 1.27)
							)
						)
					)
					(number "3"
						(effects
							(font
								(size 1.27 1.27)
							)
						)
					)
				)
				(pin bidirectional line
					(at -12.7 1.27 0)
					(length 2.54)
					(name "DIO4"
						(effects
							(font
								(size 1.27 1.27)
							)
						)
					)
					(number "4"
						(effects
							(font
								(size 1.27 1.27)
							)
						)
					)
				)
				(pin power_in line
					(at -12.7 -1.27 0)
					(length 2.54)
					(name "Vcc"
						(effects
							(font
								(size 1.27 1.27)
							)
						)
					)
					(number "5"
						(effects
							(font
								(size 1.27 1.27)
							)
						)
					)
				)
				(pin bidirectional line
					(at -12.7 -3.81 0)
					(length 2.54)
					(name "DIO0"
						(effects
							(font
								(size 1.27 1.27)
							)
						)
					)
					(number "6"
						(effects
							(font
								(size 1.27 1.27)
							)
						)
					)
				)
				(pin bidirectional line
					(at -12.7 -6.35 0)
					(length 2.54)
					(name "DIO1"
						(effects
							(font
								(size 1.27 1.27)
							)
						)
					)
					(number "7"
						(effects
							(font
								(size 1.27 1.27)
							)
						)
					)
				)
				(pin bidirectional line
					(at -12.7 -8.89 0)
					(length 2.54)
					(name "DIO2"
						(effects
							(font
								(size 1.27 1.27)
							)
						)
					)
					(number "8"
						(effects
							(font
								(size 1.27 1.27)
							)
						)
					)
				)
				(pin power_in line
					(at 12.7 -8.89 180)
					(length 2.54)
					(name "GND"
						(effects
							(font
								(size 1.27 1.27)
							)
						)
					)
					(number "9"
						(effects
							(font
								(size 1.27 1.27)
							)
						)
					)
				)
			)
		)
		(symbol "power:+3.3V"
			(power)
			(pin_names
				(offset 0)
			)
			(exclude_from_sim no)
			(in_bom yes)
			(on_board yes)
			(property "Reference" "#PWR"
				(at 0 -3.81 0)
				(effects
					(font
						(size 1.27 1.27)
					)
					(hide yes)
				)
			)
			(property "Value" "+3.3V"
				(at 0 3.556 0)
				(effects
					(font
						(size 1.27 1.27)
					)
				)
			)
			(property "Footprint" ""
				(at 0 0 0)
				(effects
					(font
						(size 1.27 1.27)
					)
					(hide yes)
				)
			)
			(property "Datasheet" ""
				(at 0 0 0)
				(effects
					(font
						(size 1.27 1.27)
					)
					(hide yes)
				)
			)
			(property "Description" "Power symbol creates a global label with name \"+3.3V\""
				(at 0 0 0)
				(effects
					(font
						(size 1.27 1.27)
					)
					(hide yes)
				)
			)
			(property "ki_keywords" "power-flag"
				(at 0 0 0)
				(effects
					(font
						(size 1.27 1.27)
					)
					(hide yes)
				)
			)
			(symbol "+3.3V_0_1"
				(polyline
					(pts
						(xy -0.762 1.27) (xy 0 2.54)
					)
					(stroke
						(width 0)
						(type default)
					)
					(fill
						(type none)
					)
				)
				(polyline
					(pts
						(xy 0 0) (xy 0 2.54)
					)
					(stroke
						(width 0)
						(type default)
					)
					(fill
						(type none)
					)
				)
				(polyline
					(pts
						(xy 0 2.54) (xy 0.762 1.27)
					)
					(stroke
						(width 0)
						(type default)
					)
					(fill
						(type none)
					)
				)
			)
			(symbol "+3.3V_1_1"
				(pin power_in line
					(at 0 0 90)
					(length 0) hide
					(name "+3V3"
						(effects
							(font
								(size 1.27 1.27)
							)
						)
					)
					(number "1"
						(effects
							(font
								(size 1.27 1.27)
							)
						)
					)
				)
			)
		)
		(symbol "power:GND"
			(power)
			(pin_names
				(offset 0)
			)
			(exclude_from_sim no)
			(in_bom yes)
			(on_board yes)
			(property "Reference" "#PWR"
				(at 0 -6.35 0)
				(effects
					(font
						(size 1.27 1.27)
					)
					(hide yes)
				)
			)
			(property "Value" "GND"
				(at 0 -3.81 0)
				(effects
					(font
						(size 1.27 1.27)
					)
				)
			)
			(property "Footprint" ""
				(at 0 0 0)
				(effects
					(font
						(size 1.27 1.27)
					)
					(hide yes)
				)
			)
			(property "Datasheet" ""
				(at 0 0 0)
				(effects
					(font
						(size 1.27 1.27)
					)
					(hide yes)
				)
			)
			(property "Description" "Power symbol creates a global label with name \"GND\" , ground"
				(at 0 0 0)
				(effects
					(font
						(size 1.27 1.27)
					)
					(hide yes)
				)
			)
			(property "ki_keywords" "power-flag"
				(at 0 0 0)
				(effects
					(font
						(size 1.27 1.27)
					)
					(hide yes)
				)
			)
			(symbol "GND_0_1"
				(polyline
					(pts
						(xy 0 0) (xy 0 -1.27) (xy 1.27 -1.27) (xy 0 -2.54) (xy -1.27 -1.27) (xy 0 -1.27)
					)
					(stroke
						(width 0)
						(type default)
					)
					(fill
						(type none)
					)
				)
			)
			(symbol "GND_1_1"
				(pin power_in line
					(at 0 0 270)
					(length 0) hide
					(name "GND"
						(effects
							(font
								(size 1.27 1.27)
							)
						)
					)
					(number "1"
						(effects
							(font
								(size 1.27 1.27)
							)
						)
					)
				)
			)
		)
	)
	(junction
		(at 41.91 146.05)
		(diameter 0)
		(color 0 0 0 0)
		(uuid "275db529-620c-41f1-bcec-c8b413913b36")
	)
	(junction
		(at 78.74 99.06)
		(diameter 0)
		(color 0 0 0 0)
		(uuid "551bb287-a149-4dae-beb4-76ccd94b516a")
	)
	(junction
		(at 93.98 36.83)
		(diameter 0)
		(color 0 0 0 0)
		(uuid "7cbadf67-94d1-4678-bd38-6dc7511c29f2")
	)
	(junction
		(at 140.97 36.83)
		(diameter 0)
		(color 0 0 0 0)
		(uuid "8311de6a-eec6-490a-9e79-672bcb13cda0")
	)
	(junction
		(at 40.64 101.6)
		(diameter 0)
		(color 0 0 0 0)
		(uuid "f795d348-d9a8-4285-9626-8f80dce875b8")
	)
	(no_connect
		(at 80.01 153.67)
		(uuid "1830e5d2-0d4a-460c-af33-753c186d2117")
	)
	(no_connect
		(at 77.47 101.6)
		(uuid "395195d1-ae5a-4cca-9658-d131477603de")
	)
	(no_connect
		(at 46.99 66.04)
		(uuid "59782ed6-02a7-4707-a590-965e3da069a5")
	)
	(no_connect
		(at 54.61 148.59)
		(uuid "59e0061c-fb39-4302-8930-54827d9fa7ce")
	)
	(no_connect
		(at 46.99 83.82)
		(uuid "5cceac8b-1810-48a1-9ffe-f2ef6032f27d")
	)
	(no_connect
		(at 54.61 151.13)
		(uuid "613f929b-f566-4937-b93d-a06718491363")
	)
	(no_connect
		(at 46.99 99.06)
		(uuid "6c2016dd-fb64-4152-af08-40328a455472")
	)
	(no_connect
		(at 46.99 104.14)
		(uuid "6dcf0553-36d0-41c2-b561-2e01a71ebb6b")
	)
	(no_connect
		(at 46.99 93.98)
		(uuid "7e6d99c4-7067-4a5f-aa5c-52a6cd46d709")
	)
	(no_connect
		(at 46.99 88.9)
		(uuid "9e8b594f-25fd-40af-92b9-5f6f4eed9afe")
	)
	(no_connect
		(at 77.47 91.44)
		(uuid "a44e618d-e9e9-458b-946e-db41997e913d")
	)
	(no_connect
		(at 77.47 104.14)
		(uuid "cd5c84db-4f67-45bb-b7ec-3d1323a05bf0")
	)
	(wire
		(pts
			(xy 77.47 99.06) (xy 78.74 99.06)
		)
		(stroke
			(width 0)
			(type default)
		)
		(uuid "1dd9fe07-7df3-4102-b417-1b11d283932d")
	)
	(wire
		(pts
			(xy 39.37 33.02) (xy 43.18 33.02)
		)
		(stroke
			(width 0)
			(type default)
		)
		(uuid "21f776f8-3d71-4c0d-a1c0-116d95fc0471")
	)
	(wire
		(pts
			(xy 40.64 101.6) (xy 40.64 104.14)
		)
		(stroke
			(width 0)
			(type default)
		)
		(uuid "26bfa4d8-39c7-4bea-ae46-a9d236638ac4")
	)
	(wire
		(pts
			(xy 77.47 96.52) (xy 78.74 96.52)
		)
		(stroke
			(width 0)
			(type default)
		)
		(uuid "3bcb6b71-18e4-42da-b716-20fbff592410")
	)
	(wire
		(pts
			(xy 40.64 101.6) (xy 46.99 101.6)
		)
		(stroke
			(width 0)
			(type default)
		)
		(uuid "3c62fd76-238c-4807-a97d-918328908623")
	)
	(wire
		(pts
			(xy 140.97 36.83) (xy 146.05 36.83)
		)
		(stroke
			(width 0)
			(type default)
		)
		(uuid "4e8df0a8-2036-4c32-8cb1-b46dd850ad4b")
	)
	(wire
		(pts
			(xy 52.07 153.67) (xy 54.61 153.67)
		)
		(stroke
			(width 0)
			(type default)
		)
		(uuid "546cdece-660d-4f10-a397-b5826cd42ba1")
	)
	(wire
		(pts
			(xy 54.61 156.21) (xy 54.61 175.26)
		)
		(stroke
			(width 0)
			(type default)
		)
		(uuid "561f9cc7-f324-4632-8e5f-b1f2916ccfd2")
	)
	(wire
		(pts
			(xy 39.37 35.56) (xy 41.91 35.56)
		)
		(stroke
			(width 0)
			(type default)
		)
		(uuid "5787bb81-7362-4bef-a399-56783cc64986")
	)
	(wire
		(pts
			(xy 135.89 36.83) (xy 140.97 36.83)
		)
		(stroke
			(width 0)
			(type default)
		)
		(uuid "5d4c3b08-a52c-480f-b3a9-7579a7c41a8b")
	)
	(wire
		(pts
			(xy 83.82 99.06) (xy 83.82 110.49)
		)
		(stroke
			(width 0)
			(type default)
		)
		(uuid "69e0306b-029b-49ce-85b3-2dfd529c795c")
	)
	(wire
		(pts
			(xy 41.91 146.05) (xy 54.61 146.05)
		)
		(stroke
			(width 0)
			(type default)
		)
		(uuid "7f807188-ffdb-423a-bec7-e4a71d4b7ddd")
	)
	(wire
		(pts
			(xy 80.01 156.21) (xy 82.55 156.21)
		)
		(stroke
			(width 0)
			(type default)
		)
		(uuid "9f37d9cd-d00b-418d-b5b3-c34ab52ba946")
	)
	(wire
		(pts
			(xy 148.59 102.87) (xy 151.13 102.87)
		)
		(stroke
			(width 0)
			(type default)
		)
		(uuid "a2f80805-4797-4d20-bb1e-bd81f35c5df8")
	)
	(wire
		(pts
			(xy 78.74 99.06) (xy 83.82 99.06)
		)
		(stroke
			(width 0)
			(type default)
		)
		(uuid "a51cda55-c96a-4b7f-9499-c3e50014604a")
	)
	(wire
		(pts
			(xy 41.91 157.48) (xy 41.91 161.29)
		)
		(stroke
			(width 0)
			(type default)
		)
		(uuid "a658e7ec-9c4a-4f85-b067-cb2cf0f80561")
	)
	(wire
		(pts
			(xy 53.34 33.02) (xy 53.34 39.37)
		)
		(stroke
			(width 0)
			(type default)
		)
		(uuid "adec1e99-9b4b-4b6f-b03c-97333777207f")
	)
	(wire
		(pts
			(xy 35.56 101.6) (xy 40.64 101.6)
		)
		(stroke
			(width 0)
			(type default)
		)
		(uuid "b420eceb-c7bd-415b-8631-f9f8f02d5d4f")
	)
	(wire
		(pts
			(xy 78.74 96.52) (xy 78.74 99.06)
		)
		(stroke
			(width 0)
			(type default)
		)
		(uuid "b505e127-cf6d-415e-91db-2182050e231e")
	)
	(wire
		(pts
			(xy 41.91 35.56) (xy 41.91 39.37)
		)
		(stroke
			(width 0)
			(type default)
		)
		(uuid "cb262d30-1c60-4458-b4bf-37154179c0a1")
	)
	(wire
		(pts
			(xy 93.98 36.83) (xy 99.06 36.83)
		)
		(stroke
			(width 0)
			(type default)
		)
		(uuid "cc6c5829-6dee-4fec-8fcd-39d05af775da")
	)
	(wire
		(pts
			(xy 82.55 156.21) (xy 82.55 160.02)
		)
		(stroke
			(width 0)
			(type default)
		)
		(uuid "d119b436-5453-470e-b7f0-320cd45bba83")
	)
	(wire
		(pts
			(xy 41.91 146.05) (xy 41.91 149.86)
		)
		(stroke
			(width 0)
			(type default)
		)
		(uuid "d4c31534-02ab-4c13-95c4-52fa6c1a03b7")
	)
	(wire
		(pts
			(xy 35.56 146.05) (xy 41.91 146.05)
		)
		(stroke
			(width 0)
			(type default)
		)
		(uuid "f5c640ff-7365-440f-b74f-230e804ad4d4")
	)
	(wire
		(pts
			(xy 80.01 138.43) (xy 92.71 138.43)
		)
		(stroke
			(width 0)
			(type default)
		)
		(uuid "fa9365d2-b9b2-4c80-ade4-521cc9275c14")
	)
	(wire
		(pts
			(xy 88.9 36.83) (xy 93.98 36.83)
		)
		(stroke
			(width 0)
			(type default)
		)
		(uuid "ff63782a-3522-42d9-b342-be885466a6a3")
	)
	(text_box "ESP"
		(exclude_from_sim no)
		(at 26.67 52.07 0)
		(size 74.93 73.66)
		(stroke
			(width 0)
			(type default)
		)
		(fill
			(type none)
		)
		(effects
			(font
				(size 1.27 1.27)
			)
			(justify left top)
		)
		(uuid "0bf85e67-0746-4f15-85cd-8832722861e3")
	)
	(text_box "lora"
		(exclude_from_sim no)
		(at 26.67 129.54 0)
		(size 74.93 55.88)
		(stroke
			(width 0)
			(type default)
		)
		(fill
			(type none)
		)
		(effects
			(font
				(size 1.27 1.27)
			)
			(justify left top)
		)
		(uuid "2792de99-298e-44f1-a474-cbfb546772dc")
	)
	(text_box "POWER"
		(exclude_from_sim no)
		(at 26.67 21.59 0)
		(size 38.1 26.67)
		(stroke
			(width 0)
			(type default)
		)
		(fill
			(type none)
		)
		(effects
			(font
				(size 1.27 1.27)
			)
			(justify left top)
		)
		(uuid "676fc33c-81a8-45a6-bb51-afdec9c77826")
	)
	(text_box "Vext"
		(exclude_from_sim no)
		(at 67.31 21.59 0)
		(size 102.87 26.67)
		(stroke
			(width 0)
			(type default)
		)
		(fill
			(type none)
		)
		(effects
			(font
				(size 1.27 1.27)
			)
			(justify left top)
		)
		(uuid "9e206f41-7746-4b4a-b7e8-a0826ae0d8e9")
	)
	(label "ant"
		(at 54.61 173.99 180)
		(fields_autoplaced yes)
		(effects
			(font
				(size 1.27 1.27)
			)
			(justify right bottom)
		)
		(uuid "00aff30b-f406-491d-8345-0fffcd46f9a8")
	)
	(label "Vext_lora"
		(at 35.56 146.05 180)
		(fields_autoplaced yes)
		(effects
			(font
				(size 1.27 1.27)
			)
			(justify right bottom)
		)
		(uuid "00e18bf7-4093-4b6e-aad8-a55b873db48c")
	)
	(label "d0"
		(at 46.99 68.58 180)
		(fields_autoplaced yes)
		(effects
			(font
				(size 1.27 1.27)
			)
			(justify right bottom)
		)
		(uuid "0b87bd38-3b45-4d8d-92c5-42b7766d882a")
	)
	(label "lora_dio1"
		(at 54.61 140.97 180)
		(fields_autoplaced yes)
		(effects
			(font
				(size 1.27 1.27)
			)
			(justify right bottom)
		)
		(uuid "1194e331-f850-4be5-8ed8-080a7f5fee45")
	)
	(label "lora_cs"
		(at 80.01 148.59 0)
		(fields_autoplaced yes)
		(effects
			(font
				(size 1.27 1.27)
			)
			(justify left bottom)
		)
		(uuid "16b973b0-b1de-4246-9632-e46a756ffe91")
	)
	(label "spi_mosi"
		(at 80.01 143.51 0)
		(fields_autoplaced yes)
		(effects
			(font
				(size 1.27 1.27)
			)
			(justify left bottom)
		)
		(uuid "197876d0-3ded-4072-b57b-866314307fb8")
	)
	(label "cmd_Vext_sensor"
		(at 88.9 36.83 180)
		(fields_autoplaced yes)
		(effects
			(font
				(size 1.27 1.27)
			)
			(justify right bottom)
		)
		(uuid "22b5e659-586b-4b0e-ac4f-749d97187445")
	)
	(label "cmd_Vext_lora"
		(at 77.47 81.28 0)
		(fields_autoplaced yes)
		(effects
			(font
				(size 1.27 1.27)
			)
			(justify left bottom)
		)
		(uuid "41f27381-5d6c-4139-b91d-836e45f73a23")
	)
	(label "lora_cs"
		(at 46.99 96.52 180)
		(fields_autoplaced yes)
		(effects
			(font
				(size 1.27 1.27)
			)
			(justify right bottom)
		)
		(uuid "42e9c809-a17a-4967-bf8a-95feac5b567f")
	)
	(label "spi_miso"
		(at 80.01 140.97 0)
		(fields_autoplaced yes)
		(effects
			(font
				(size 1.27 1.27)
			)
			(justify left bottom)
		)
		(uuid "43b789ff-8ac0-4838-a3ec-d5083327a0d6")
	)
	(label "Vext_sensor"
		(at 151.13 105.41 180)
		(fields_autoplaced yes)
		(effects
			(font
				(size 1.27 1.27)
			)
			(justify right bottom)
		)
		(uuid "57c19168-b6e5-4ee6-a26c-3f8cc8ee2f95")
	)
	(label "spi_miso"
		(at 46.99 86.36 180)
		(fields_autoplaced yes)
		(effects
			(font
				(size 1.27 1.27)
			)
			(justify right bottom)
		)
		(uuid "5a7431eb-d652-4c9c-85ab-18f41e2684d4")
	)
	(label "lora_dio1"
		(at 77.47 88.9 0)
		(fields_autoplaced yes)
		(effects
			(font
				(size 1.27 1.27)
			)
			(justify left bottom)
		)
		(uuid "693501d2-7ab0-4f52-8b3a-8313ced72e9a")
	)
	(label "d8"
		(at 151.13 128.27 180)
		(fields_autoplaced yes)
		(effects
			(font
				(size 1.27 1.27)
			)
			(justify right bottom)
		)
		(uuid "6a432940-1222-49da-9fec-9c6c0e1a59e3")
	)
	(label "lora_dio0"
		(at 54.61 143.51 180)
		(fields_autoplaced yes)
		(effects
			(font
				(size 1.27 1.27)
			)
			(justify right bottom)
		)
		(uuid "6baf2897-f97c-4760-b575-2dbfeee21a55")
	)
	(label "d5"
		(at 151.13 120.65 180)
		(fields_autoplaced yes)
		(effects
			(font
				(size 1.27 1.27)
			)
			(justify right bottom)
		)
		(uuid "6db09dcd-cbc7-480d-a017-d0598c7e4d58")
	)
	(label "lora_dio2"
		(at 54.61 138.43 180)
		(fields_autoplaced yes)
		(effects
			(font
				(size 1.27 1.27)
			)
			(justify right bottom)
		)
		(uuid "7d90d370-7df3-4864-911a-f53af3a4e37a")
	)
	(label "d3"
		(at 77.47 76.2 0)
		(fields_autoplaced yes)
		(effects
			(font
				(size 1.27 1.27)
			)
			(justify left bottom)
		)
		(uuid "7eee29d1-62ac-47d1-bc57-2c9a3b852431")
	)
	(label "spi_sck"
		(at 80.01 146.05 0)
		(fields_autoplaced yes)
		(effects
			(font
				(size 1.27 1.27)
			)
			(justify left bottom)
		)
		(uuid "82dc192d-cd05-413a-a6fd-e4e7d54671de")
	)
	(label "spi_mosi"
		(at 46.99 91.44 180)
		(fields_autoplaced yes)
		(effects
			(font
				(size 1.27 1.27)
			)
			(justify right bottom)
		)
		(uuid "83586940-c10a-4623-bcfe-591eb1c1e24c")
	)
	(label "lora_dio0"
		(at 77.47 83.82 0)
		(fields_autoplaced yes)
		(effects
			(font
				(size 1.27 1.27)
			)
			(justify left bottom)
		)
		(uuid "8fdfedd4-6f78-42ec-9046-58647c14390f")
	)
	(label "d7"
		(at 151.13 125.73 180)
		(fields_autoplaced yes)
		(effects
			(font
				(size 1.27 1.27)
			)
			(justify right bottom)
		)
		(uuid "90429f1b-57a6-494f-89b9-0c3724704392")
	)
	(label "d1"
		(at 151.13 110.49 180)
		(fields_autoplaced yes)
		(effects
			(font
				(size 1.27 1.27)
			)
			(justify right bottom)
		)
		(uuid "95fba34a-9f6d-4be4-946d-5a9220a169c7")
	)
	(label "d3"
		(at 151.13 115.57 180)
		(fields_autoplaced yes)
		(effects
			(font
				(size 1.27 1.27)
			)
			(justify right bottom)
		)
		(uuid "99c6af04-4a53-4f65-a2a7-3c974cb876ec")
	)
	(label "cmd_Vext_sensor"
		(at 46.99 71.12 180)
		(fields_autoplaced yes)
		(effects
			(font
				(size 1.27 1.27)
			)
			(justify right bottom)
		)
		(uuid "9c05e76f-d7c2-422c-bea8-44d38767b6dd")
	)
	(label "spi_sck"
		(at 46.99 81.28 180)
		(fields_autoplaced yes)
		(effects
			(font
				(size 1.27 1.27)
			)
			(justify right bottom)
		)
		(uuid "9e949a0a-c90b-48ed-82e1-bbd7e40cd28d")
	)
	(label "Vext_sensor"
		(at 106.68 31.75 0)
		(fields_autoplaced yes)
		(effects
			(font
				(size 1.27 1.27)
			)
			(justify left bottom)
		)
		(uuid "a04decd5-ee7a-47b0-8e96-32db9bba842e")
	)
	(label "d8"
		(at 77.47 78.74 0)
		(fields_autoplaced yes)
		(effects
			(font
				(size 1.27 1.27)
			)
			(justify left bottom)
		)
		(uuid "b91067a6-3f0f-4a23-8115-6bc5ae6ed07e")
	)
	(label "d6"
		(at 151.13 123.19 180)
		(fields_autoplaced yes)
		(effects
			(font
				(size 1.27 1.27)
			)
			(justify right bottom)
		)
		(uuid "b9beca35-8b90-4f76-87b4-e3bb7ea6bcf8")
	)
	(label "Vext_lora"
		(at 153.67 31.75 0)
		(fields_autoplaced yes)
		(effects
			(font
				(size 1.27 1.27)
			)
			(justify left bottom)
		)
		(uuid "bfaa3170-74f6-42b3-865c-8e21e7f4e568")
	)
	(label "lora_rst"
		(at 80.01 151.13 0)
		(fields_autoplaced yes)
		(effects
			(font
				(size 1.27 1.27)
			)
			(justify left bottom)
		)
		(uuid "c1572d5f-3901-478f-912c-3d61ee32c806")
	)
	(label "d7"
		(at 77.47 73.66 0)
		(fields_autoplaced yes)
		(effects
			(font
				(size 1.27 1.27)
			)
			(justify left bottom)
		)
		(uuid "c414ddb5-882d-4c74-afd1-b7ba630abdd4")
	)
	(label "bat"
		(at 41.91 33.02 180)
		(fields_autoplaced yes)
		(effects
			(font
				(size 1.27 1.27)
			)
			(justify right bottom)
		)
		(uuid "c89b99ff-37d7-48d4-925e-5c6851977e93")
	)
	(label "lora_dio2"
		(at 77.47 93.98 0)
		(fields_autoplaced yes)
		(effects
			(font
				(size 1.27 1.27)
			)
			(justify left bottom)
		)
		(uuid "d0935835-c435-4c82-b6f5-4df8d73674f3")
	)
	(label "d0"
		(at 151.13 107.95 180)
		(fields_autoplaced yes)
		(effects
			(font
				(size 1.27 1.27)
			)
			(justify right bottom)
		)
		(uuid "d4c0bb06-2aa3-4c27-a14a-dddf183798d4")
	)
	(label "d2"
		(at 46.99 78.74 180)
		(fields_autoplaced yes)
		(effects
			(font
				(size 1.27 1.27)
			)
			(justify right bottom)
		)
		(uuid "d875d41f-faf3-45e9-b3f0-30aa2d3237bb")
	)
	(label "d2"
		(at 151.13 113.03 180)
		(fields_autoplaced yes)
		(effects
			(font
				(size 1.27 1.27)
			)
			(justify right bottom)
		)
		(uuid "d9532c8a-10b0-43c1-ae5b-1d8b26a5a862")
	)
	(label "cmd_Vext_lora"
		(at 135.89 36.83 180)
		(fields_autoplaced yes)
		(effects
			(font
				(size 1.27 1.27)
			)
			(justify right bottom)
		)
		(uuid "ded54561-9cc9-47be-81b6-339eefecee7d")
	)
	(label "d1"
		(at 46.99 73.66 180)
		(fields_autoplaced yes)
		(effects
			(font
				(size 1.27 1.27)
			)
			(justify right bottom)
		)
		(uuid "e038c4a3-0996-48da-9728-f357e34153d4")
	)
	(label "d6"
		(at 77.47 68.58 0)
		(fields_autoplaced yes)
		(effects
			(font
				(size 1.27 1.27)
			)
			(justify left bottom)
		)
		(uuid "e0b34899-5f20-4b04-97e9-332979fc4e85")
	)
	(label "d4"
		(at 151.13 118.11 180)
		(fields_autoplaced yes)
		(effects
			(font
				(size 1.27 1.27)
			)
			(justify right bottom)
		)
		(uuid "eacf1272-617b-4b56-a73a-b48080a4b678")
	)
	(label "lora_rst"
		(at 46.99 76.2 180)
		(fields_autoplaced yes)
		(effects
			(font
				(size 1.27 1.27)
			)
			(justify right bottom)
		)
		(uuid "fa3ff7b6-787e-41e4-b692-6681c4c38bff")
	)
	(label "d4"
		(at 77.47 71.12 0)
		(fields_autoplaced yes)
		(effects
			(font
				(size 1.27 1.27)
			)
			(justify left bottom)
		)
		(uuid "fa4831cd-fefe-490f-91f2-8fa68f17babb")
	)
	(label "d5"
		(at 77.47 66.04 0)
		(fields_autoplaced yes)
		(effects
			(font
				(size 1.27 1.27)
			)
			(justify left bottom)
		)
		(uuid "ff4b5c87-42bc-4664-b064-71ee46c7e2b2")
	)
	(symbol
		(lib_id "power:+3.3V")
		(at 41.91 39.37 180)
		(unit 1)
		(exclude_from_sim no)
		(in_bom yes)
		(on_board yes)
		(dnp no)
		(uuid "0286d312-dc0c-468b-87a0-df327aa34a28")
		(property "Reference" "#PWR04"
			(at 41.91 35.56 0)
			(effects
				(font
					(size 1.27 1.27)
				)
				(hide yes)
			)
		)
		(property "Value" "+3V3"
			(at 39.37 43.18 0)
			(effects
				(font
					(size 1.27 1.27)
				)
				(justify right)
			)
		)
		(property "Footprint" ""
			(at 41.91 39.37 0)
			(effects
				(font
					(size 1.27 1.27)
				)
				(hide yes)
			)
		)
		(property "Datasheet" ""
			(at 41.91 39.37 0)
			(effects
				(font
					(size 1.27 1.27)
				)
				(hide yes)
			)
		)
		(property "Description" ""
			(at 41.91 39.37 0)
			(effects
				(font
					(size 1.27 1.27)
				)
				(hide yes)
			)
		)
		(pin "1"
			(uuid "61805ba6-189b-4963-a879-13d6533c8942")
		)
		(instances
			(project "pcb"
				(path "/e63e39d7-6ac0-4ffd-8aa3-1841a4541b55"
					(reference "#PWR04")
					(unit 1)
				)
			)
		)
	)
	(symbol
		(lib_id "Device:R")
		(at 93.98 33.02 0)
		(mirror y)
		(unit 1)
		(exclude_from_sim no)
		(in_bom yes)
		(on_board yes)
		(dnp no)
		(fields_autoplaced yes)
		(uuid "03d679b9-cdcd-40f8-9ab2-b4cad55f7fa7")
		(property "Reference" "R4"
			(at 95.758 32.1853 0)
			(effects
				(font
					(size 1.27 1.27)
				)
				(justify right)
			)
		)
		(property "Value" "10k"
			(at 95.758 34.7222 0)
			(effects
				(font
					(size 1.27 1.27)
				)
				(justify right)
			)
		)
		(property "Footprint" "Resistor_SMD:R_0805_2012Metric"
			(at 95.758 33.02 90)
			(effects
				(font
					(size 1.27 1.27)
				)
				(hide yes)
			)
		)
		(property "Datasheet" "~"
			(at 93.98 33.02 0)
			(effects
				(font
					(size 1.27 1.27)
				)
				(hide yes)
			)
		)
		(property "Description" ""
			(at 93.98 33.02 0)
			(effects
				(font
					(size 1.27 1.27)
				)
				(hide yes)
			)
		)
		(pin "1"
			(uuid "f3b75abc-6b4a-4f0a-8454-c4d7ff21c9ff")
		)
		(pin "2"
			(uuid "ff1841d0-b180-457c-831d-0f0d38e378f9")
		)
		(instances
			(project "pcb"
				(path "/e63e39d7-6ac0-4ffd-8aa3-1841a4541b55"
					(reference "R4")
					(unit 1)
				)
			)
		)
	)
	(symbol
		(lib_id "power:GND")
		(at 52.07 153.67 0)
		(unit 1)
		(exclude_from_sim no)
		(in_bom yes)
		(on_board yes)
		(dnp no)
		(fields_autoplaced yes)
		(uuid "07161772-061c-4db1-b0b4-bbe167f1588b")
		(property "Reference" "#PWR06"
			(at 52.07 160.02 0)
			(effects
				(font
					(size 1.27 1.27)
				)
				(hide yes)
			)
		)
		(property "Value" "GND"
			(at 52.07 158.1134 0)
			(effects
				(font
					(size 1.27 1.27)
				)
			)
		)
		(property "Footprint" ""
			(at 52.07 153.67 0)
			(effects
				(font
					(size 1.27 1.27)
				)
				(hide yes)
			)
		)
		(property "Datasheet" ""
			(at 52.07 153.67 0)
			(effects
				(font
					(size 1.27 1.27)
				)
				(hide yes)
			)
		)
		(property "Description" ""
			(at 52.07 153.67 0)
			(effects
				(font
					(size 1.27 1.27)
				)
				(hide yes)
			)
		)
		(pin "1"
			(uuid "cbd0e063-5767-4c0f-8f49-dcf8426655f3")
		)
		(instances
			(project "pcb"
				(path "/e63e39d7-6ac0-4ffd-8aa3-1841a4541b55"
					(reference "#PWR06")
					(unit 1)
				)
			)
		)
	)
	(symbol
		(lib_id "power:GND")
		(at 57.15 175.26 180)
		(unit 1)
		(exclude_from_sim no)
		(in_bom yes)
		(on_board yes)
		(dnp no)
		(fields_autoplaced yes)
		(uuid "0d7f4c35-c2e3-401d-a274-158f1021b113")
		(property "Reference" "#PWR010"
			(at 57.15 168.91 0)
			(effects
				(font
					(size 1.27 1.27)
				)
				(hide yes)
			)
		)
		(property "Value" "GND"
			(at 57.15 170.18 0)
			(effects
				(font
					(size 1.27 1.27)
				)
			)
		)
		(property "Footprint" ""
			(at 57.15 175.26 0)
			(effects
				(font
					(size 1.27 1.27)
				)
				(hide yes)
			)
		)
		(property "Datasheet" ""
			(at 57.15 175.26 0)
			(effects
				(font
					(size 1.27 1.27)
				)
				(hide yes)
			)
		)
		(property "Description" ""
			(at 57.15 175.26 0)
			(effects
				(font
					(size 1.27 1.27)
				)
				(hide yes)
			)
		)
		(pin "1"
			(uuid "6d1dc581-0122-409f-b660-c383804e6910")
		)
		(instances
			(project "pcb"
				(path "/e63e39d7-6ac0-4ffd-8aa3-1841a4541b55"
					(reference "#PWR010")
					(unit 1)
				)
			)
		)
	)
	(symbol
		(lib_id "power:+3.3V")
		(at 140.97 29.21 0)
		(unit 1)
		(exclude_from_sim no)
		(in_bom yes)
		(on_board yes)
		(dnp no)
		(uuid "0e8827c5-7141-4d20-a850-91df60510a45")
		(property "Reference" "#PWR09"
			(at 140.97 33.02 0)
			(effects
				(font
					(size 1.27 1.27)
				)
				(hide yes)
			)
		)
		(property "Value" "+3V3"
			(at 143.51 25.4 0)
			(effects
				(font
					(size 1.27 1.27)
				)
				(justify right)
			)
		)
		(property "Footprint" ""
			(at 140.97 29.21 0)
			(effects
				(font
					(size 1.27 1.27)
				)
				(hide yes)
			)
		)
		(property "Datasheet" ""
			(at 140.97 29.21 0)
			(effects
				(font
					(size 1.27 1.27)
				)
				(hide yes)
			)
		)
		(property "Description" ""
			(at 140.97 29.21 0)
			(effects
				(font
					(size 1.27 1.27)
				)
				(hide yes)
			)
		)
		(pin "1"
			(uuid "77325998-af0a-4f68-851e-8971990b827a")
		)
		(instances
			(project "pcb"
				(path "/e63e39d7-6ac0-4ffd-8aa3-1841a4541b55"
					(reference "#PWR09")
					(unit 1)
				)
			)
		)
	)
	(symbol
		(lib_id "power:+3.3V")
		(at 93.98 29.21 0)
		(unit 1)
		(exclude_from_sim no)
		(in_bom yes)
		(on_board yes)
		(dnp no)
		(uuid "1675c9b5-9634-456d-ac71-8a64b29d1c21")
		(property "Reference" "#PWR017"
			(at 93.98 33.02 0)
			(effects
				(font
					(size 1.27 1.27)
				)
				(hide yes)
			)
		)
		(property "Value" "+3V3"
			(at 96.52 25.4 0)
			(effects
				(font
					(size 1.27 1.27)
				)
				(justify right)
			)
		)
		(property "Footprint" ""
			(at 93.98 29.21 0)
			(effects
				(font
					(size 1.27 1.27)
				)
				(hide yes)
			)
		)
		(property "Datasheet" ""
			(at 93.98 29.21 0)
			(effects
				(font
					(size 1.27 1.27)
				)
				(hide yes)
			)
		)
		(property "Description" ""
			(at 93.98 29.21 0)
			(effects
				(font
					(size 1.27 1.27)
				)
				(hide yes)
			)
		)
		(pin "1"
			(uuid "5787d190-abdf-4b7f-9ff1-c7a655a09269")
		)
		(instances
			(project "pcb"
				(path "/e63e39d7-6ac0-4ffd-8aa3-1841a4541b55"
					(reference "#PWR017")
					(unit 1)
				)
			)
		)
	)
	(symbol
		(lib_id "power:GND")
		(at 148.59 102.87 180)
		(unit 1)
		(exclude_from_sim no)
		(in_bom yes)
		(on_board yes)
		(dnp no)
		(fields_autoplaced yes)
		(uuid "3bb67235-d1f2-4791-b866-c395ddd49237")
		(property "Reference" "#PWR08"
			(at 148.59 96.52 0)
			(effects
				(font
					(size 1.27 1.27)
				)
				(hide yes)
			)
		)
		(property "Value" "GND"
			(at 148.59 97.79 0)
			(effects
				(font
					(size 1.27 1.27)
				)
			)
		)
		(property "Footprint" ""
			(at 148.59 102.87 0)
			(effects
				(font
					(size 1.27 1.27)
				)
				(hide yes)
			)
		)
		(property "Datasheet" ""
			(at 148.59 102.87 0)
			(effects
				(font
					(size 1.27 1.27)
				)
				(hide yes)
			)
		)
		(property "Description" ""
			(at 148.59 102.87 0)
			(effects
				(font
					(size 1.27 1.27)
				)
				(hide yes)
			)
		)
		(pin "1"
			(uuid "4982acff-9148-4d3a-bc83-43ded77e6f27")
		)
		(instances
			(project "pcb"
				(path "/e63e39d7-6ac0-4ffd-8aa3-1841a4541b55"
					(reference "#PWR08")
					(unit 1)
				)
			)
		)
	)
	(symbol
		(lib_id "power:GND")
		(at 92.71 138.43 0)
		(unit 1)
		(exclude_from_sim no)
		(in_bom yes)
		(on_board yes)
		(dnp no)
		(fields_autoplaced yes)
		(uuid "4b37187b-f9c6-4dd0-9301-f5d97fb1b9b1")
		(property "Reference" "#PWR013"
			(at 92.71 144.78 0)
			(effects
				(font
					(size 1.27 1.27)
				)
				(hide yes)
			)
		)
		(property "Value" "GND"
			(at 95.25 139.6999 0)
			(effects
				(font
					(size 1.27 1.27)
				)
				(justify left)
			)
		)
		(property "Footprint" ""
			(at 92.71 138.43 0)
			(effects
				(font
					(size 1.27 1.27)
				)
				(hide yes)
			)
		)
		(property "Datasheet" ""
			(at 92.71 138.43 0)
			(effects
				(font
					(size 1.27 1.27)
				)
				(hide yes)
			)
		)
		(property "Description" ""
			(at 92.71 138.43 0)
			(effects
				(font
					(size 1.27 1.27)
				)
				(hide yes)
			)
		)
		(pin "1"
			(uuid "24d077ae-a33e-47ac-b8ec-944afe7d920c")
		)
		(instances
			(project "pcb"
				(path "/e63e39d7-6ac0-4ffd-8aa3-1841a4541b55"
					(reference "#PWR013")
					(unit 1)
				)
			)
		)
	)
	(symbol
		(lib_id "Device:C")
		(at 41.91 153.67 0)
		(unit 1)
		(exclude_from_sim no)
		(in_bom yes)
		(on_board yes)
		(dnp no)
		(fields_autoplaced yes)
		(uuid "59735dea-4552-4449-af46-40be4408a98e")
		(property "Reference" "C2"
			(at 45.72 152.3999 0)
			(effects
				(font
					(size 1.27 1.27)
				)
				(justify left)
			)
		)
		(property "Value" "47µF"
			(at 45.72 154.9399 0)
			(effects
				(font
					(size 1.27 1.27)
				)
				(justify left)
			)
		)
		(property "Footprint" "Capacitor_SMD:C_Elec_4x5.4"
			(at 42.8752 157.48 0)
			(effects
				(font
					(size 1.27 1.27)
				)
				(hide yes)
			)
		)
		(property "Datasheet" "~"
			(at 41.91 153.67 0)
			(effects
				(font
					(size 1.27 1.27)
				)
				(hide yes)
			)
		)
		(property "Description" ""
			(at 41.91 153.67 0)
			(effects
				(font
					(size 1.27 1.27)
				)
				(hide yes)
			)
		)
		(pin "1"
			(uuid "c504df29-740e-46ac-b560-a5b508394364")
		)
		(pin "2"
			(uuid "62d7b1e1-73e0-4961-ba14-0594728982b3")
		)
		(instances
			(project "pcb"
				(path "/e63e39d7-6ac0-4ffd-8aa3-1841a4541b55"
					(reference "C2")
					(unit 1)
				)
			)
		)
	)
	(symbol
		(lib_id "power:+3.3V")
		(at 106.68 41.91 180)
		(unit 1)
		(exclude_from_sim no)
		(in_bom yes)
		(on_board yes)
		(dnp no)
		(uuid "690854b1-f635-4892-af6e-9b4b3d6acc22")
		(property "Reference" "#PWR018"
			(at 106.68 38.1 0)
			(effects
				(font
					(size 1.27 1.27)
				)
				(hide yes)
			)
		)
		(property "Value" "+3V3"
			(at 104.14 45.72 0)
			(effects
				(font
					(size 1.27 1.27)
				)
				(justify right)
			)
		)
		(property "Footprint" ""
			(at 106.68 41.91 0)
			(effects
				(font
					(size 1.27 1.27)
				)
				(hide yes)
			)
		)
		(property "Datasheet" ""
			(at 106.68 41.91 0)
			(effects
				(font
					(size 1.27 1.27)
				)
				(hide yes)
			)
		)
		(property "Description" ""
			(at 106.68 41.91 0)
			(effects
				(font
					(size 1.27 1.27)
				)
				(hide yes)
			)
		)
		(pin "1"
			(uuid "e2a152a1-14b1-4149-8d77-a787d4719ab1")
		)
		(instances
			(project "pcb"
				(path "/e63e39d7-6ac0-4ffd-8aa3-1841a4541b55"
					(reference "#PWR018")
					(unit 1)
				)
			)
		)
	)
	(symbol
		(lib_id "lib_cmp:battery_smd")
		(at 48.26 33.02 90)
		(unit 1)
		(exclude_from_sim no)
		(in_bom yes)
		(on_board yes)
		(dnp no)
		(fields_autoplaced yes)
		(uuid "69c8aa41-8d9d-4669-988f-45803edfc2db")
		(property "Reference" "BT1"
			(at 47.879 26.67 90)
			(effects
				(font
					(size 1.27 1.27)
				)
			)
		)
		(property "Value" "battery_smd"
			(at 47.879 29.21 90)
			(effects
				(font
					(size 1.27 1.27)
				)
			)
		)
		(property "Footprint" "lib_cmp:battery_smd"
			(at 46.736 33.02 90)
			(effects
				(font
					(size 1.27 1.27)
				)
				(hide yes)
			)
		)
		(property "Datasheet" ""
			(at 46.736 33.02 90)
			(effects
				(font
					(size 1.27 1.27)
				)
				(hide yes)
			)
		)
		(property "Description" ""
			(at 48.26 33.02 0)
			(effects
				(font
					(size 1.27 1.27)
				)
				(hide yes)
			)
		)
		(pin "1"
			(uuid "a27a32a8-da1d-4f5c-b1cd-11f65d3cc7f0")
		)
		(pin "2"
			(uuid "c9462841-fb92-4c9d-943a-a137d973b234")
		)
		(instances
			(project "pcb"
				(path "/e63e39d7-6ac0-4ffd-8aa3-1841a4541b55"
					(reference "BT1")
					(unit 1)
				)
			)
		)
	)
	(symbol
		(lib_id "Transistor_FET:AO3401A")
		(at 104.14 36.83 0)
		(unit 1)
		(exclude_from_sim no)
		(in_bom yes)
		(on_board yes)
		(dnp no)
		(fields_autoplaced yes)
		(uuid "7af80f58-6227-454c-916e-a2afc192f116")
		(property "Reference" "Q2"
			(at 110.49 35.5599 0)
			(effects
				(font
					(size 1.27 1.27)
				)
				(justify left)
			)
		)
		(property "Value" "AO3401A"
			(at 110.49 38.0999 0)
			(effects
				(font
					(size 1.27 1.27)
				)
				(justify left)
			)
		)
		(property "Footprint" "Package_TO_SOT_SMD:SOT-23"
			(at 109.22 38.735 0)
			(effects
				(font
					(size 1.27 1.27)
					(italic yes)
				)
				(justify left)
				(hide yes)
			)
		)
		(property "Datasheet" "http://www.aosmd.com/pdfs/datasheet/AO3401A.pdf"
			(at 109.22 40.64 0)
			(effects
				(font
					(size 1.27 1.27)
				)
				(justify left)
				(hide yes)
			)
		)
		(property "Description" "-4.0A Id, -30V Vds, P-Channel MOSFET, SOT-23"
			(at 104.14 36.83 0)
			(effects
				(font
					(size 1.27 1.27)
				)
				(hide yes)
			)
		)
		(pin "3"
			(uuid "f51b1290-b885-42b3-b3c3-3db344c1f0f1")
		)
		(pin "1"
			(uuid "5a58a7f5-bb4c-4190-a758-2be444a3b89f")
		)
		(pin "2"
			(uuid "e3900128-518e-4147-b305-93d085755154")
		)
		(instances
			(project "pcb"
				(path "/e63e39d7-6ac0-4ffd-8aa3-1841a4541b55"
					(reference "Q2")
					(unit 1)
				)
			)
		)
	)
	(symbol
		(lib_id "lib_mcu:esp32_lolin_s2")
		(at 62.23 85.09 0)
		(unit 1)
		(exclude_from_sim no)
		(in_bom yes)
		(on_board yes)
		(dnp no)
		(fields_autoplaced yes)
		(uuid "7c9e1287-1f85-4d0f-b961-410306ec1f8b")
		(property "Reference" "U2"
			(at 62.23 57.15 0)
			(effects
				(font
					(size 1.27 1.27)
				)
			)
		)
		(property "Value" "esp32_lolin_s2"
			(at 62.23 59.69 0)
			(effects
				(font
					(size 1.27 1.27)
				)
			)
		)
		(property "Footprint" "lib_mcu:esp32_lolin_s2_nosilk"
			(at 62.23 72.39 0)
			(effects
				(font
					(size 1.27 1.27)
				)
				(hide yes)
			)
		)
		(property "Datasheet" ""
			(at 66.04 71.12 0)
			(effects
				(font
					(size 1.27 1.27)
				)
				(hide yes)
			)
		)
		(property "Description" ""
			(at 62.23 85.09 0)
			(effects
				(font
					(size 1.27 1.27)
				)
				(hide yes)
			)
		)
		(pin "1"
			(uuid "655d42bb-3315-450c-9c17-33d64de7de56")
		)
		(pin "10"
			(uuid "52fb9563-d732-43df-bd2e-ab5e8d7b48ad")
		)
		(pin "11"
			(uuid "5660fed6-c69e-45f7-a648-5224a287d7db")
		)
		(pin "12"
			(uuid "d55a94d9-ae74-49ea-890e-3440ca70d4f6")
		)
		(pin "13"
			(uuid "5b0c7097-ea75-43e3-baad-c15b8a0e1358")
		)
		(pin "14"
			(uuid "3ad984ba-d24a-4f19-8a78-2c594e61655d")
		)
		(pin "15"
			(uuid "e8aa6294-69c1-4e88-82b9-ae72180334ee")
		)
		(pin "16"
			(uuid "906e3c97-36ff-45a2-a977-25192650fdff")
		)
		(pin "17"
			(uuid "f008c638-b8b7-429d-b665-d37c9864f3e3")
		)
		(pin "18"
			(uuid "7f2fc8fa-eecb-49ae-947d-eb1abee75b99")
		)
		(pin "19"
			(uuid "815aab5f-69f5-4680-a40d-abc8b8e5172f")
		)
		(pin "2"
			(uuid "ab435628-7f74-425e-a7d9-d342c33a3be1")
		)
		(pin "20"
			(uuid "3b422941-05ec-40f9-8642-1d2cc672d080")
		)
		(pin "21"
			(uuid "a770279b-0a67-46dc-9c88-3eea6fb30989")
		)
		(pin "22"
			(uuid "fac5c43f-8fd9-40ec-943a-8705d1162a2c")
		)
		(pin "23"
			(uuid "25ad8dd2-35c9-4e07-bfc3-74d4ba4da846")
		)
		(pin "24"
			(uuid "5e4fa490-05cc-4071-8d13-3c9cc6dbbbce")
		)
		(pin "25"
			(uuid "cd7f4ee5-4d75-4c3c-9e68-88957ff93ee5")
		)
		(pin "26"
			(uuid "ce56604a-bfd0-4ecf-8184-42e428cb829b")
		)
		(pin "27"
			(uuid "729d889e-7091-4ed1-adda-ec9c7ad739e8")
		)
		(pin "28"
			(uuid "eac38feb-8446-497f-a51c-173e8be7ed73")
		)
		(pin "29"
			(uuid "05717785-6945-4431-bae9-47350f80412f")
		)
		(pin "3"
			(uuid "935d530c-b13a-4f37-9b87-b73f20e0b344")
		)
		(pin "30"
			(uuid "a8bcccef-3af4-4399-8623-5521dc75caaa")
		)
		(pin "31"
			(uuid "58a73de0-d68d-424a-b58e-26a7f4f71095")
		)
		(pin "32"
			(uuid "1bad7ffd-1726-4047-8cd4-375492e6db93")
		)
		(pin "4"
			(uuid "df2174c5-fb5a-4df7-ad34-ebe1035ecc98")
		)
		(pin "5"
			(uuid "15052c47-df2b-4e00-8ba8-de94a6bbaf25")
		)
		(pin "6"
			(uuid "7879d757-1c7f-4d44-9f59-90da8dc9d9a6")
		)
		(pin "7"
			(uuid "f7d8a72f-5c5a-4f66-b61f-49192eabf98c")
		)
		(pin "8"
			(uuid "a3f6fc7a-ebdf-448d-a63f-4e4e8af82b71")
		)
		(pin "9"
			(uuid "bb15a087-7821-46a1-aec5-f8a4d87debc1")
		)
		(instances
			(project "pcb"
				(path "/e63e39d7-6ac0-4ffd-8aa3-1841a4541b55"
					(reference "U2")
					(unit 1)
				)
			)
		)
	)
	(symbol
		(lib_id "power:GND")
		(at 41.91 161.29 0)
		(unit 1)
		(exclude_from_sim no)
		(in_bom yes)
		(on_board yes)
		(dnp no)
		(fields_autoplaced yes)
		(uuid "7f3a21ce-6ad7-46b2-a014-f0e571db6e1d")
		(property "Reference" "#PWR05"
			(at 41.91 167.64 0)
			(effects
				(font
					(size 1.27 1.27)
				)
				(hide yes)
			)
		)
		(property "Value" "GND"
			(at 41.91 165.7334 0)
			(effects
				(font
					(size 1.27 1.27)
				)
			)
		)
		(property "Footprint" ""
			(at 41.91 161.29 0)
			(effects
				(font
					(size 1.27 1.27)
				)
				(hide yes)
			)
		)
		(property "Datasheet" ""
			(at 41.91 161.29 0)
			(effects
				(font
					(size 1.27 1.27)
				)
				(hide yes)
			)
		)
		(property "Description" ""
			(at 41.91 161.29 0)
			(effects
				(font
					(size 1.27 1.27)
				)
				(hide yes)
			)
		)
		(pin "1"
			(uuid "43aba845-5090-47ef-a189-1b0cd1389366")
		)
		(instances
			(project "pcb"
				(path "/e63e39d7-6ac0-4ffd-8aa3-1841a4541b55"
					(reference "#PWR05")
					(unit 1)
				)
			)
		)
	)
	(symbol
		(lib_id "Device:C")
		(at 40.64 107.95 0)
		(unit 1)
		(exclude_from_sim no)
		(in_bom yes)
		(on_board yes)
		(dnp no)
		(fields_autoplaced yes)
		(uuid "85a673cc-c391-4c03-a035-cfd504b417cc")
		(property "Reference" "C1"
			(at 43.561 107.1153 0)
			(effects
				(font
					(size 1.27 1.27)
				)
				(justify left)
			)
		)
		(property "Value" "1µF"
			(at 43.561 109.6522 0)
			(effects
				(font
					(size 1.27 1.27)
				)
				(justify left)
			)
		)
		(property "Footprint" "Capacitor_SMD:C_0805_2012Metric_Pad1.18x1.45mm_HandSolder"
			(at 41.6052 111.76 0)
			(effects
				(font
					(size 1.27 1.27)
				)
				(hide yes)
			)
		)
		(property "Datasheet" "~"
			(at 40.64 107.95 0)
			(effects
				(font
					(size 1.27 1.27)
				)
				(hide yes)
			)
		)
		(property "Description" ""
			(at 40.64 107.95 0)
			(effects
				(font
					(size 1.27 1.27)
				)
				(hide yes)
			)
		)
		(pin "1"
			(uuid "409e3cb9-0f92-4082-a07f-677b0752e033")
		)
		(pin "2"
			(uuid "3560ac85-4fc1-4a3f-a8e7-0b6125ee99ca")
		)
		(instances
			(project "pcb"
				(path "/e63e39d7-6ac0-4ffd-8aa3-1841a4541b55"
					(reference "C1")
					(unit 1)
				)
			)
		)
	)
	(symbol
		(lib_id "power:GND")
		(at 82.55 160.02 0)
		(unit 1)
		(exclude_from_sim no)
		(in_bom yes)
		(on_board yes)
		(dnp no)
		(fields_autoplaced yes)
		(uuid "9a171c82-910e-4dda-8f51-b0d63c35a414")
		(property "Reference" "#PWR011"
			(at 82.55 166.37 0)
			(effects
				(font
					(size 1.27 1.27)
				)
				(hide yes)
			)
		)
		(property "Value" "GND"
			(at 82.55 164.4634 0)
			(effects
				(font
					(size 1.27 1.27)
				)
			)
		)
		(property "Footprint" ""
			(at 82.55 160.02 0)
			(effects
				(font
					(size 1.27 1.27)
				)
				(hide yes)
			)
		)
		(property "Datasheet" ""
			(at 82.55 160.02 0)
			(effects
				(font
					(size 1.27 1.27)
				)
				(hide yes)
			)
		)
		(property "Description" ""
			(at 82.55 160.02 0)
			(effects
				(font
					(size 1.27 1.27)
				)
				(hide yes)
			)
		)
		(pin "1"
			(uuid "5ce3a4d3-17c6-4747-b519-673d30e6ec7a")
		)
		(instances
			(project "pcb"
				(path "/e63e39d7-6ac0-4ffd-8aa3-1841a4541b55"
					(reference "#PWR011")
					(unit 1)
				)
			)
		)
	)
	(symbol
		(lib_id "lib_mcu:sx1276_board")
		(at 67.31 147.32 0)
		(mirror x)
		(unit 1)
		(exclude_from_sim no)
		(in_bom yes)
		(on_board yes)
		(dnp no)
		(uuid "9aa9178f-70b6-4415-a9b3-c8f1f8c2ce9a")
		(property "Reference" "U5"
			(at 67.31 163.83 0)
			(effects
				(font
					(size 1.27 1.27)
				)
			)
		)
		(property "Value" "sx1276_board"
			(at 67.31 161.29 0)
			(effects
				(font
					(size 1.27 1.27)
				)
			)
		)
		(property "Footprint" "lib_mcu:sx1276_board"
			(at 67.31 142.24 0)
			(effects
				(font
					(size 1.27 1.27)
				)
				(hide yes)
			)
		)
		(property "Datasheet" ""
			(at 67.31 142.24 0)
			(effects
				(font
					(size 1.27 1.27)
				)
				(hide yes)
			)
		)
		(property "Description" ""
			(at 67.31 147.32 0)
			(effects
				(font
					(size 1.27 1.27)
				)
				(hide yes)
			)
		)
		(pin "15"
			(uuid "6cf2f0e1-25b7-443d-9ee9-951919385927")
		)
		(pin "16"
			(uuid "24bd4067-19fc-4913-93f8-33f250068771")
		)
		(pin "2"
			(uuid "c4e2c108-5500-4227-b91a-2f4c3f0c0bd7")
		)
		(pin "8"
			(uuid "e78acce0-c978-49fa-9e65-f1231082e0f9")
		)
		(pin "7"
			(uuid "eae905c5-101d-4c8a-9199-fa48dd2b2eeb")
		)
		(pin "5"
			(uuid "e976a3af-fa3c-4fac-b746-257789afbd7b")
		)
		(pin "1"
			(uuid "22ec8ece-aa1d-4b73-b89d-0d3432a65c53")
		)
		(pin "10"
			(uuid "a14cd506-e3ea-4cbf-a948-e12b4b0ffd9e")
		)
		(pin "4"
			(uuid "87ba405d-5b30-486c-80dc-7fea629b102c")
		)
		(pin "12"
			(uuid "bf9b97af-df34-4ad0-9318-f70f27b0b9ce")
		)
		(pin "13"
			(uuid "a70cd943-50e9-40f4-8cce-45e57319c4ab")
		)
		(pin "3"
			(uuid "32615df2-eee6-476a-82ad-ef1e8eeaeecf")
		)
		(pin "9"
			(uuid "ef033b86-234e-45f0-b851-0d0bc136834d")
		)
		(pin "11"
			(uuid "922011b0-44b7-46d2-b72c-4e13068b5b70")
		)
		(pin "6"
			(uuid "9156e621-679a-47f3-9bb5-fb1f0964bf80")
		)
		(pin "14"
			(uuid "8f2845f5-0444-401d-8794-d6dea7c9f439")
		)
		(instances
			(project "pcb"
				(path "/e63e39d7-6ac0-4ffd-8aa3-1841a4541b55"
					(reference "U5")
					(unit 1)
				)
			)
		)
	)
	(symbol
		(lib_id "lib_cmp:passive_2x")
		(at 33.02 35.56 0)
		(mirror y)
		(unit 1)
		(exclude_from_sim no)
		(in_bom yes)
		(on_board yes)
		(dnp no)
		(uuid "af2c890c-c56b-40ce-803c-f5d771416c30")
		(property "Reference" "U1"
			(at 32.3849 38.1 90)
			(effects
				(font
					(size 1.27 1.27)
				)
				(justify right)
			)
		)
		(property "Value" "batt_en"
			(at 34.9249 38.1 90)
			(effects
				(font
					(size 1.27 1.27)
				)
				(justify right)
			)
		)
		(property "Footprint" "Connector_PinHeader_2.54mm:PinHeader_1x02_P2.54mm_Vertical"
			(at 34.29 29.21 0)
			(effects
				(font
					(size 1.27 1.27)
				)
				(hide yes)
			)
		)
		(property "Datasheet" ""
			(at 34.29 29.21 0)
			(effects
				(font
					(size 1.27 1.27)
				)
				(hide yes)
			)
		)
		(property "Description" ""
			(at 33.02 35.56 0)
			(effects
				(font
					(size 1.27 1.27)
				)
				(hide yes)
			)
		)
		(pin "1"
			(uuid "d8eef2e2-edd9-4798-afda-e570a1a28d0c")
		)
		(pin "2"
			(uuid "c2aeee83-f8cc-43a3-a373-68829e5848ad")
		)
		(instances
			(project "pcb"
				(path "/e63e39d7-6ac0-4ffd-8aa3-1841a4541b55"
					(reference "U1")
					(unit 1)
				)
			)
		)
	)
	(symbol
		(lib_id "lib_cmp:con_base")
		(at 158.75 115.57 0)
		(unit 1)
		(exclude_from_sim no)
		(in_bom yes)
		(on_board yes)
		(dnp no)
		(fields_autoplaced yes)
		(uuid "b025ef17-8192-4dcd-9db8-31d2ffc6f56a")
		(property "Reference" "U3"
			(at 165.1 114.9349 0)
			(effects
				(font
					(size 1.27 1.27)
				)
				(justify left)
			)
		)
		(property "Value" "~"
			(at 165.1 116.84 0)
			(effects
				(font
					(size 1.27 1.27)
				)
				(justify left)
			)
		)
		(property "Footprint" "Connector_PinHeader_2.54mm:PinHeader_1x11_P2.54mm_Vertical"
			(at 151.13 111.76 0)
			(effects
				(font
					(size 1.27 1.27)
				)
				(hide yes)
			)
		)
		(property "Datasheet" ""
			(at 151.13 111.76 0)
			(effects
				(font
					(size 1.27 1.27)
				)
				(hide yes)
			)
		)
		(property "Description" ""
			(at 151.13 111.76 0)
			(effects
				(font
					(size 1.27 1.27)
				)
				(hide yes)
			)
		)
		(pin "4"
			(uuid "e5cf3f78-41d2-4839-a587-b8dc2d960fe5")
		)
		(pin "2"
			(uuid "e30d81ae-c327-4f01-a0f1-2bd4b1113c44")
		)
		(pin "8"
			(uuid "6cefab3e-2fe1-45e2-990c-145d0d33b6d5")
		)
		(pin "10"
			(uuid "e8b0510e-f35b-4663-91fb-f568584f6722")
		)
		(pin "11"
			(uuid "4bf40abb-e400-4951-9678-d57c112c8e87")
		)
		(pin "3"
			(uuid "2919f454-b6b3-48b5-b369-15c739fa6401")
		)
		(pin "7"
			(uuid "24fdac81-74b2-401f-8a58-b355e82f2a3b")
		)
		(pin "1"
			(uuid "f1f38f4c-f6a9-49ed-ac06-a2e12d167650")
		)
		(pin "9"
			(uuid "932134f0-3140-40cc-9d39-76c57a091f74")
		)
		(pin "5"
			(uuid "bd9d6458-9572-4291-8f22-dd25bf903625")
		)
		(pin "6"
			(uuid "ca98489f-dd79-460a-8cff-73177485d5cc")
		)
		(instances
			(project "pcb"
				(path "/e63e39d7-6ac0-4ffd-8aa3-1841a4541b55"
					(reference "U3")
					(unit 1)
				)
			)
		)
	)
	(symbol
		(lib_id "power:+3.3V")
		(at 153.67 41.91 180)
		(unit 1)
		(exclude_from_sim no)
		(in_bom yes)
		(on_board yes)
		(dnp no)
		(uuid "b6c68c2c-c198-457a-a1c4-27118976f072")
		(property "Reference" "#PWR02"
			(at 153.67 38.1 0)
			(effects
				(font
					(size 1.27 1.27)
				)
				(hide yes)
			)
		)
		(property "Value" "+3V3"
			(at 151.13 45.72 0)
			(effects
				(font
					(size 1.27 1.27)
				)
				(justify right)
			)
		)
		(property "Footprint" ""
			(at 153.67 41.91 0)
			(effects
				(font
					(size 1.27 1.27)
				)
				(hide yes)
			)
		)
		(property "Datasheet" ""
			(at 153.67 41.91 0)
			(effects
				(font
					(size 1.27 1.27)
				)
				(hide yes)
			)
		)
		(property "Description" ""
			(at 153.67 41.91 0)
			(effects
				(font
					(size 1.27 1.27)
				)
				(hide yes)
			)
		)
		(pin "1"
			(uuid "865607b6-b87d-48a5-bb43-3521d9714050")
		)
		(instances
			(project "pcb"
				(path "/e63e39d7-6ac0-4ffd-8aa3-1841a4541b55"
					(reference "#PWR02")
					(unit 1)
				)
			)
		)
	)
	(symbol
		(lib_id "lib_cmp:ipex1")
		(at 57.15 177.8 90)
		(unit 1)
		(exclude_from_sim no)
		(in_bom yes)
		(on_board yes)
		(dnp no)
		(fields_autoplaced yes)
		(uuid "bff84dca-d499-4983-89d6-6909e169a854")
		(property "Reference" "J1"
			(at 59.69 177.6094 90)
			(effects
				(font
					(size 1.27 1.27)
				)
				(justify right)
			)
		)
		(property "Value" "ipex1"
			(at 59.69 180.1494 90)
			(effects
				(font
					(size 1.27 1.27)
				)
				(justify right)
			)
		)
		(property "Footprint" "lib_cmp:ipex1_smd"
			(at 64.262 177.546 0)
			(effects
				(font
					(size 1.27 1.27)
				)
				(justify bottom)
				(hide yes)
			)
		)
		(property "Datasheet" ""
			(at 57.15 177.8 0)
			(effects
				(font
					(size 1.27 1.27)
				)
				(hide yes)
			)
		)
		(property "Description" ""
			(at 57.15 177.8 0)
			(effects
				(font
					(size 1.27 1.27)
				)
				(hide yes)
			)
		)
		(property "MF" ""
			(at 57.15 177.8 0)
			(effects
				(font
					(size 1.27 1.27)
				)
				(justify bottom)
				(hide yes)
			)
		)
		(property "Description_1" ""
			(at 57.15 177.8 0)
			(effects
				(font
					(size 1.27 1.27)
				)
				(justify bottom)
				(hide yes)
			)
		)
		(property "Package" ""
			(at 57.15 177.8 0)
			(effects
				(font
					(size 1.27 1.27)
				)
				(justify bottom)
				(hide yes)
			)
		)
		(property "Price" ""
			(at 57.15 177.8 0)
			(effects
				(font
					(size 1.27 1.27)
				)
				(justify bottom)
				(hide yes)
			)
		)
		(property "Check_prices" ""
			(at 57.15 177.8 0)
			(effects
				(font
					(size 1.27 1.27)
				)
				(justify bottom)
				(hide yes)
			)
		)
		(property "STANDARD" ""
			(at 57.15 177.8 0)
			(effects
				(font
					(size 1.27 1.27)
				)
				(justify bottom)
				(hide yes)
			)
		)
		(property "PARTREV" ""
			(at 57.15 177.8 0)
			(effects
				(font
					(size 1.27 1.27)
				)
				(justify bottom)
				(hide yes)
			)
		)
		(property "SnapEDA_Link" ""
			(at 57.15 177.8 0)
			(effects
				(font
					(size 1.27 1.27)
				)
				(justify bottom)
				(hide yes)
			)
		)
		(property "MP" ""
			(at 57.15 177.8 0)
			(effects
				(font
					(size 1.27 1.27)
				)
				(justify bottom)
				(hide yes)
			)
		)
		(property "Availability" ""
			(at 57.15 177.8 0)
			(effects
				(font
					(size 1.27 1.27)
				)
				(justify bottom)
				(hide yes)
			)
		)
		(property "MANUFACTURER" ""
			(at 57.15 177.8 0)
			(effects
				(font
					(size 1.27 1.27)
				)
				(justify bottom)
				(hide yes)
			)
		)
		(pin "2"
			(uuid "e8885a75-5d9e-49f1-b705-c78eb9ef4916")
		)
		(pin "1"
			(uuid "720e27d1-034f-40f8-900f-66d528f38839")
		)
		(pin "3"
			(uuid "340e56be-dbf7-40c1-8b35-a95c33cb5e14")
		)
		(instances
			(project "pcb"
				(path "/e63e39d7-6ac0-4ffd-8aa3-1841a4541b55"
					(reference "J1")
					(unit 1)
				)
			)
		)
	)
	(symbol
		(lib_id "power:GND")
		(at 83.82 110.49 0)
		(unit 1)
		(exclude_from_sim no)
		(in_bom yes)
		(on_board yes)
		(dnp no)
		(fields_autoplaced yes)
		(uuid "cba56030-b682-4bcd-9935-92c13a4a071f")
		(property "Reference" "#PWR012"
			(at 83.82 116.84 0)
			(effects
				(font
					(size 1.27 1.27)
				)
				(hide yes)
			)
		)
		(property "Value" "GND"
			(at 83.82 114.9334 0)
			(effects
				(font
					(size 1.27 1.27)
				)
			)
		)
		(property "Footprint" ""
			(at 83.82 110.49 0)
			(effects
				(font
					(size 1.27 1.27)
				)
				(hide yes)
			)
		)
		(property "Datasheet" ""
			(at 83.82 110.49 0)
			(effects
				(font
					(size 1.27 1.27)
				)
				(hide yes)
			)
		)
		(property "Description" ""
			(at 83.82 110.49 0)
			(effects
				(font
					(size 1.27 1.27)
				)
				(hide yes)
			)
		)
		(pin "1"
			(uuid "8fb6f3d4-4a72-42c3-995d-b3d06efd4dda")
		)
		(instances
			(project "pcb"
				(path "/e63e39d7-6ac0-4ffd-8aa3-1841a4541b55"
					(reference "#PWR012")
					(unit 1)
				)
			)
		)
	)
	(symbol
		(lib_id "power:GND")
		(at 53.34 39.37 0)
		(unit 1)
		(exclude_from_sim no)
		(in_bom yes)
		(on_board yes)
		(dnp no)
		(fields_autoplaced yes)
		(uuid "d82e9d5a-96dc-4b5d-8422-a2beef389f86")
		(property "Reference" "#PWR07"
			(at 53.34 45.72 0)
			(effects
				(font
					(size 1.27 1.27)
				)
				(hide yes)
			)
		)
		(property "Value" "GND"
			(at 53.34 43.8134 0)
			(effects
				(font
					(size 1.27 1.27)
				)
			)
		)
		(property "Footprint" ""
			(at 53.34 39.37 0)
			(effects
				(font
					(size 1.27 1.27)
				)
				(hide yes)
			)
		)
		(property "Datasheet" ""
			(at 53.34 39.37 0)
			(effects
				(font
					(size 1.27 1.27)
				)
				(hide yes)
			)
		)
		(property "Description" ""
			(at 53.34 39.37 0)
			(effects
				(font
					(size 1.27 1.27)
				)
				(hide yes)
			)
		)
		(pin "1"
			(uuid "87086365-6071-4cc4-86ba-50c7373c7d48")
		)
		(instances
			(project "pcb"
				(path "/e63e39d7-6ac0-4ffd-8aa3-1841a4541b55"
					(reference "#PWR07")
					(unit 1)
				)
			)
		)
	)
	(symbol
		(lib_id "power:GND")
		(at 40.64 111.76 0)
		(unit 1)
		(exclude_from_sim no)
		(in_bom yes)
		(on_board yes)
		(dnp no)
		(fields_autoplaced yes)
		(uuid "d89d72ba-8ceb-4093-84d1-654acde4e3da")
		(property "Reference" "#PWR03"
			(at 40.64 118.11 0)
			(effects
				(font
					(size 1.27 1.27)
				)
				(hide yes)
			)
		)
		(property "Value" "GND"
			(at 40.64 116.3225 0)
			(effects
				(font
					(size 1.27 1.27)
				)
			)
		)
		(property "Footprint" ""
			(at 40.64 111.76 0)
			(effects
				(font
					(size 1.27 1.27)
				)
				(hide yes)
			)
		)
		(property "Datasheet" ""
			(at 40.64 111.76 0)
			(effects
				(font
					(size 1.27 1.27)
				)
				(hide yes)
			)
		)
		(property "Description" ""
			(at 40.64 111.76 0)
			(effects
				(font
					(size 1.27 1.27)
				)
				(hide yes)
			)
		)
		(pin "1"
			(uuid "457d1384-9262-4614-a1b0-9c8ff7a47be4")
		)
		(instances
			(project "pcb"
				(path "/e63e39d7-6ac0-4ffd-8aa3-1841a4541b55"
					(reference "#PWR03")
					(unit 1)
				)
			)
		)
	)
	(symbol
		(lib_id "Transistor_FET:AO3401A")
		(at 151.13 36.83 0)
		(unit 1)
		(exclude_from_sim no)
		(in_bom yes)
		(on_board yes)
		(dnp no)
		(fields_autoplaced yes)
		(uuid "ea0ea2be-a1b8-4be4-8f05-42605d76dd44")
		(property "Reference" "Q1"
			(at 157.48 35.5599 0)
			(effects
				(font
					(size 1.27 1.27)
				)
				(justify left)
			)
		)
		(property "Value" "AO3401A"
			(at 157.48 38.0999 0)
			(effects
				(font
					(size 1.27 1.27)
				)
				(justify left)
			)
		)
		(property "Footprint" "Package_TO_SOT_SMD:SOT-23"
			(at 156.21 38.735 0)
			(effects
				(font
					(size 1.27 1.27)
					(italic yes)
				)
				(justify left)
				(hide yes)
			)
		)
		(property "Datasheet" "http://www.aosmd.com/pdfs/datasheet/AO3401A.pdf"
			(at 156.21 40.64 0)
			(effects
				(font
					(size 1.27 1.27)
				)
				(justify left)
				(hide yes)
			)
		)
		(property "Description" "-4.0A Id, -30V Vds, P-Channel MOSFET, SOT-23"
			(at 151.13 36.83 0)
			(effects
				(font
					(size 1.27 1.27)
				)
				(hide yes)
			)
		)
		(pin "3"
			(uuid "193a4d8c-7ed7-4335-8025-f45adeda2f37")
		)
		(pin "1"
			(uuid "523bc770-4e43-41e0-8198-c7ee111b496e")
		)
		(pin "2"
			(uuid "6d8a61ff-02ce-4465-ab43-61db797d5b84")
		)
		(instances
			(project "pcb"
				(path "/e63e39d7-6ac0-4ffd-8aa3-1841a4541b55"
					(reference "Q1")
					(unit 1)
				)
			)
		)
	)
	(symbol
		(lib_id "Device:R")
		(at 140.97 33.02 0)
		(mirror y)
		(unit 1)
		(exclude_from_sim no)
		(in_bom yes)
		(on_board yes)
		(dnp no)
		(fields_autoplaced yes)
		(uuid "edff14a8-2bbc-46e8-b812-26b8ab5b7155")
		(property "Reference" "R1"
			(at 142.748 32.1853 0)
			(effects
				(font
					(size 1.27 1.27)
				)
				(justify right)
			)
		)
		(property "Value" "10k"
			(at 142.748 34.7222 0)
			(effects
				(font
					(size 1.27 1.27)
				)
				(justify right)
			)
		)
		(property "Footprint" "Resistor_SMD:R_0805_2012Metric"
			(at 142.748 33.02 90)
			(effects
				(font
					(size 1.27 1.27)
				)
				(hide yes)
			)
		)
		(property "Datasheet" "~"
			(at 140.97 33.02 0)
			(effects
				(font
					(size 1.27 1.27)
				)
				(hide yes)
			)
		)
		(property "Description" ""
			(at 140.97 33.02 0)
			(effects
				(font
					(size 1.27 1.27)
				)
				(hide yes)
			)
		)
		(pin "1"
			(uuid "1a6dc195-6aa4-465f-91be-a63ebe1e36bf")
		)
		(pin "2"
			(uuid "bfcd394b-121b-46f7-8f34-61f33c021109")
		)
		(instances
			(project "pcb"
				(path "/e63e39d7-6ac0-4ffd-8aa3-1841a4541b55"
					(reference "R1")
					(unit 1)
				)
			)
		)
	)
	(symbol
		(lib_id "power:+3.3V")
		(at 35.56 101.6 0)
		(unit 1)
		(exclude_from_sim no)
		(in_bom yes)
		(on_board yes)
		(dnp no)
		(uuid "f19ae535-3ee6-4b5d-8718-283ab1f32667")
		(property "Reference" "#PWR01"
			(at 35.56 105.41 0)
			(effects
				(font
					(size 1.27 1.27)
				)
				(hide yes)
			)
		)
		(property "Value" "+3V3"
			(at 38.1 96.52 0)
			(effects
				(font
					(size 1.27 1.27)
				)
				(justify right)
			)
		)
		(property "Footprint" ""
			(at 35.56 101.6 0)
			(effects
				(font
					(size 1.27 1.27)
				)
				(hide yes)
			)
		)
		(property "Datasheet" ""
			(at 35.56 101.6 0)
			(effects
				(font
					(size 1.27 1.27)
				)
				(hide yes)
			)
		)
		(property "Description" ""
			(at 35.56 101.6 0)
			(effects
				(font
					(size 1.27 1.27)
				)
				(hide yes)
			)
		)
		(pin "1"
			(uuid "dad2e2f9-e075-4b7e-ab54-4f022c9f016f")
		)
		(instances
			(project "pcb"
				(path "/e63e39d7-6ac0-4ffd-8aa3-1841a4541b55"
					(reference "#PWR01")
					(unit 1)
				)
			)
		)
	)
	(sheet_instances
		(path "/"
			(page "1")
		)
	)
)